USA1992_Duke = {
	USA1992_Duke_start_race = {
		icon = generic_form_nation
		allowed = {
			    original_tag = USA
		}
		available = {
			is_subject = no
		}
		cost = 0
		visible = {
			original_tag = USA
			NOT = { has_country_flag = primaries_rep }
		}
		days_remove = 7

		complete_effect = {

		}
		remove_effect = {
			country_event = { id = usa_tne_90s.1 }
		}
		ai_will_do = {
			factor = 0
		}
	}
	USA1992_Duke_campaign_CAL = {
		icon = generic_form_nation
		allowed = {
			    original_tag = USA
            has_country_flag = primaries_rep
		}
		available = {
			is_subject = no
			NOT = { has_country_flag = duke_propaganda }
		}
		on_map_mode = map_and_decisions_view
		cost = 0
		visible = {
				    original_tag = USA
            has_country_flag = primaries_rep
		}
		days_remove = 7
		days_re_enable = 21
		highlight_states = { state = 994 }

		complete_effect = {
			set_country_flag = duke_propaganda
		}
		remove_effect = {
			clr_country_flag = duke_propaganda
			random_list = {
					20 = {
						country_event = usa_david_duke.1
					}
					20 = {
						country_event = usa_david_duke.2
					}
					20 = {
						country_event = usa_david_duke.3
					}
					20 = {
						country_event = usa_david_duke.4
					}
					20 = {
						country_event = usa_david_duke.5
					}
				}
		}
		ai_will_do = {
			factor = 0
		}
	}
	USA1992_Duke_campaign_ARI = {
		icon = generic_form_nation
		allowed = {
			    original_tag = USA
            has_country_flag = primaries_rep
		}
		available = {
			is_subject = no
			NOT = { has_country_flag = duke_propaganda }
		}
		on_map_mode = map_and_decisions_view
		cost = 0
		visible = {
				    original_tag = USA
            has_country_flag = primaries_rep
		}
		days_remove = 7
		days_re_enable = 21
		highlight_states = { state = 377 }

		complete_effect = {
			set_country_flag = duke_propaganda
		}
		remove_effect = {
			clr_country_flag = duke_propaganda
			random_list = {
					20 = {
						country_event = usa_david_duke.1
					}
					20 = {
						country_event = usa_david_duke.2
					}
					20 = {
						country_event = usa_david_duke.3
					}
					20 = {
						country_event = usa_david_duke.4
					}
					20 = {
						country_event = usa_david_duke.5
					}
				}
		}
		ai_will_do = {
			factor = 0
		}
	}
	USA1992_Duke_campaign_WSH = {
		icon = generic_form_nation
		allowed = {
			    original_tag = USA
            has_country_flag = primaries_rep
		}
		available = {
			is_subject = no
			NOT = { has_country_flag = duke_propaganda }
		}
		on_map_mode = map_and_decisions_view
		cost = 0
		visible = {
				    original_tag = USA
            has_country_flag = primaries_rep
		}
		days_remove = 7
		days_re_enable = 21
		highlight_states = { state = 386 }

		complete_effect = {
			set_country_flag = duke_propaganda
		}
		remove_effect = {
			clr_country_flag = duke_propaganda
			random_list = {
					20 = {
						country_event = usa_david_duke.1
					}
					20 = {
						country_event = usa_david_duke.2
					}
					20 = {
						country_event = usa_david_duke.3
					}
					20 = {
						country_event = usa_david_duke.4
					}
					20 = {
						country_event = usa_david_duke.5
					}
				}
		}
		ai_will_do = {
			factor = 0
		}
	}
	USA1992_Duke_campaign_ORE = {
		icon = generic_form_nation
		allowed = {
			    original_tag = USA
            has_country_flag = primaries_rep
		}
		available = {
			is_subject = no
			NOT = { has_country_flag = duke_propaganda }
		}
		on_map_mode = map_and_decisions_view
		cost = 0
		visible = {
				    original_tag = USA
            has_country_flag = primaries_rep
		}
		days_remove = 7
		days_re_enable = 21
		highlight_states = { state = 385 }

		complete_effect = {
			set_country_flag = duke_propaganda
		}
		remove_effect = {
			clr_country_flag = duke_propaganda
			random_list = {
					20 = {
						country_event = usa_david_duke.1
					}
					20 = {
						country_event = usa_david_duke.2
					}
					20 = {
						country_event = usa_david_duke.3
					}
					20 = {
						country_event = usa_david_duke.4
					}
					20 = {
						country_event = usa_david_duke.5
					}
				}
		}
		ai_will_do = {
			factor = 0
		}
	}
	USA1992_Duke_campaign_NEV = {
		icon = generic_form_nation
		allowed = {
			    original_tag = USA
            has_country_flag = primaries_rep
		}
		available = {
			is_subject = no
			NOT = { has_country_flag = duke_propaganda }
		}
		on_map_mode = map_and_decisions_view
		cost = 0
		visible = {
				    original_tag = USA
            has_country_flag = primaries_rep
		}
		days_remove = 7
		days_re_enable = 21
		highlight_states = { state = 379 }

		complete_effect = {
			set_country_flag = duke_propaganda
		}
		remove_effect = {
			clr_country_flag = duke_propaganda
			random_list = {
					20 = {
						country_event = usa_david_duke.1
					}
					20 = {
						country_event = usa_david_duke.2
					}
					20 = {
						country_event = usa_david_duke.3
					}
					20 = {
						country_event = usa_david_duke.4
					}
					20 = {
						country_event = usa_david_duke.5
					}
				}
		}
		ai_will_do = {
			factor = 0
		}
	}
	USA1992_Duke_campaign_UTA = {
		icon = generic_form_nation
		allowed = {
			    original_tag = USA
            has_country_flag = primaries_rep
		}
		available = {
			is_subject = no
			NOT = { has_country_flag = duke_propaganda }
		}
		on_map_mode = map_and_decisions_view
		cost = 0
		visible = {
				    original_tag = USA
            has_country_flag = primaries_rep
		}
		days_remove = 7
		days_re_enable = 21
		highlight_states = { state = 966 }

		complete_effect = {
			set_country_flag = duke_propaganda
		}
		remove_effect = {
			clr_country_flag = duke_propaganda
			random_list = {
					20 = {
						country_event = usa_david_duke.1
					}
					20 = {
						country_event = usa_david_duke.2
					}
					20 = {
						country_event = usa_david_duke.3
					}
					20 = {
						country_event = usa_david_duke.4
					}
					20 = {
						country_event = usa_david_duke.5
					}
				}
		}
		ai_will_do = {
			factor = 0
		}
	}
	USA1992_Duke_campaign_NME = {
		icon = generic_form_nation
		allowed = {
			    original_tag = USA
            has_country_flag = primaries_rep
		}
		available = {
			is_subject = no
			NOT = { has_country_flag = duke_propaganda }
		}
		on_map_mode = map_and_decisions_view
		cost = 0
		visible = {
				    original_tag = USA
            has_country_flag = primaries_rep
		}
		days_remove = 7
		days_re_enable = 21
		highlight_states = { state = 975 }

		complete_effect = {
			set_country_flag = duke_propaganda
		}
		remove_effect = {
			clr_country_flag = duke_propaganda
			random_list = {
					20 = {
						country_event = usa_david_duke.1
					}
					20 = {
						country_event = usa_david_duke.2
					}
					20 = {
						country_event = usa_david_duke.3
					}
					20 = {
						country_event = usa_david_duke.4
					}
					20 = {
						country_event = usa_david_duke.5
					}
				}
		}
		ai_will_do = {
			factor = 0
		}
	}
	USA1992_Duke_campaign_TEX = {
		icon = generic_form_nation
		allowed = {
			    original_tag = USA
            has_country_flag = primaries_rep
		}
		available = {
			is_subject = no
			NOT = { has_country_flag = duke_propaganda }
		}
		on_map_mode = map_and_decisions_view
		cost = 0
		visible = {
				    original_tag = USA
            has_country_flag = primaries_rep
		}
		days_remove = 7
		days_re_enable = 21
		highlight_states = { state = 969 }

		complete_effect = {
			set_country_flag = duke_propaganda
		}
		remove_effect = {
			clr_country_flag = duke_propaganda
			random_list = {
					20 = {
						country_event = usa_david_duke.1
					}
					20 = {
						country_event = usa_david_duke.2
					}
					20 = {
						country_event = usa_david_duke.3
					}
					20 = {
						country_event = usa_david_duke.4
					}
					20 = {
						country_event = usa_david_duke.5
					}
				}
		}
		ai_will_do = {
			factor = 0
		}
	}
	USA1992_Duke_campaign_OKL = {
		icon = generic_form_nation
		allowed = {
			    original_tag = USA
            has_country_flag = primaries_rep
		}
		available = {
			is_subject = no
			NOT = { has_country_flag = duke_propaganda }
		}
		on_map_mode = map_and_decisions_view
		cost = 0
		visible = {
				    original_tag = USA
            has_country_flag = primaries_rep
		}
		days_remove = 7
		days_re_enable = 21
		highlight_states = { state = 374 }

		complete_effect = {
			set_country_flag = duke_propaganda
		}
		remove_effect = {
			clr_country_flag = duke_propaganda
			random_list = {
					20 = {
						country_event = usa_david_duke.1
					}
					20 = {
						country_event = usa_david_duke.2
					}
					20 = {
						country_event = usa_david_duke.3
					}
					20 = {
						country_event = usa_david_duke.4
					}
					20 = {
						country_event = usa_david_duke.5
					}
				}
		}
		ai_will_do = {
			factor = 0
		}
	}
	USA1992_Duke_campaign_AID = {
		icon = generic_form_nation
		allowed = {
			    original_tag = USA
            has_country_flag = primaries_rep
		}
		available = {
			is_subject = no
			NOT = { has_country_flag = duke_propaganda }
		}
		on_map_mode = map_and_decisions_view
		cost = 0
		visible = {
				    original_tag = USA
            has_country_flag = primaries_rep
		}
		days_remove = 7
		days_re_enable = 21
		highlight_states = { state = 387 }

		complete_effect = {
			set_country_flag = duke_propaganda
		}
		remove_effect = {
			clr_country_flag = duke_propaganda
			random_list = {
					20 = {
						country_event = usa_david_duke.1
					}
					20 = {
						country_event = usa_david_duke.2
					}
					20 = {
						country_event = usa_david_duke.3
					}
					20 = {
						country_event = usa_david_duke.4
					}
					20 = {
						country_event = usa_david_duke.5
					}
				}
		}
		ai_will_do = {
			factor = 0
		}
	}
	USA1992_Duke_campaign_MNT = {
		icon = generic_form_nation
		allowed = {
			    original_tag = USA
            has_country_flag = primaries_rep
		}
		available = {
			is_subject = no
			NOT = { has_country_flag = duke_propaganda }
		}
		on_map_mode = map_and_decisions_view
		cost = 0
		visible = {
				    original_tag = USA
            has_country_flag = primaries_rep
		}
		days_remove = 7
		days_re_enable = 21
		highlight_states = { state = 984 }

		complete_effect = {
			set_country_flag = duke_propaganda
		}
		remove_effect = {
			clr_country_flag = duke_propaganda
			random_list = {
					20 = {
						country_event = usa_david_duke.1
					}
					20 = {
						country_event = usa_david_duke.2
					}
					20 = {
						country_event = usa_david_duke.3
					}
					20 = {
						country_event = usa_david_duke.4
					}
					20 = {
						country_event = usa_david_duke.5
					}
				}
		}
		ai_will_do = {
			factor = 0
		}
	}
	USA1992_Duke_campaign_WYO = {
		icon = generic_form_nation
		allowed = {
			    original_tag = USA
            has_country_flag = primaries_rep
		}
		available = {
			is_subject = no
			NOT = { has_country_flag = duke_propaganda }
		}
		on_map_mode = map_and_decisions_view
		cost = 0
		visible = {
				    original_tag = USA
            has_country_flag = primaries_rep
		}
		days_remove = 7
		days_re_enable = 21
		highlight_states = { state = 381 }

		complete_effect = {
			set_country_flag = duke_propaganda
		}
		remove_effect = {
			clr_country_flag = duke_propaganda
			random_list = {
					20 = {
						country_event = usa_david_duke.1
					}
					20 = {
						country_event = usa_david_duke.2
					}
					20 = {
						country_event = usa_david_duke.3
					}
					20 = {
						country_event = usa_david_duke.4
					}
					20 = {
						country_event = usa_david_duke.5
					}
				}
		}
		ai_will_do = {
			factor = 0
		}
	}
	USA1992_Duke_campaign_COL = {
		icon = generic_form_nation
		allowed = {
			    original_tag = USA
            has_country_flag = primaries_rep
		}
		available = {
			is_subject = no
			NOT = { has_country_flag = duke_propaganda }
		}
		on_map_mode = map_and_decisions_view
		cost = 0
		visible = {
				    original_tag = USA
            has_country_flag = primaries_rep
		}
		days_remove = 7
		days_re_enable = 21
		highlight_states = { state = 979 }

		complete_effect = {
			set_country_flag = duke_propaganda
		}
		remove_effect = {
			clr_country_flag = duke_propaganda
			random_list = {
					20 = {
						country_event = usa_david_duke.1
					}
					20 = {
						country_event = usa_david_duke.2
					}
					20 = {
						country_event = usa_david_duke.3
					}
					20 = {
						country_event = usa_david_duke.4
					}
					20 = {
						country_event = usa_david_duke.5
					}
				}
		}
		ai_will_do = {
			factor = 0
		}
	}
	USA1992_Duke_campaign_CAN = {
		icon = generic_form_nation
		allowed = {
			    original_tag = USA
            has_country_flag = primaries_rep
		}
		available = {
			is_subject = no
			NOT = { has_country_flag = duke_propaganda }
		}
		on_map_mode = map_and_decisions_view
		cost = 0
		visible = {
				    original_tag = USA
            has_country_flag = primaries_rep
		}
		days_remove = 7
		days_re_enable = 21
		highlight_states = { state = 978 }

		complete_effect = {
			set_country_flag = duke_propaganda
		}
		remove_effect = {
			clr_country_flag = duke_propaganda
			random_list = {
					20 = {
						country_event = usa_david_duke.1
					}
					20 = {
						country_event = usa_david_duke.2
					}
					20 = {
						country_event = usa_david_duke.3
					}
					20 = {
						country_event = usa_david_duke.4
					}
					20 = {
						country_event = usa_david_duke.5
					}
				}
		}
		ai_will_do = {
			factor = 0
		}
	}
	USA1992_Duke_campaign_NEB = {
		icon = generic_form_nation
		allowed = {
			    original_tag = USA
            has_country_flag = primaries_rep
		}
		available = {
			is_subject = no
			NOT = { has_country_flag = duke_propaganda }
		}
		on_map_mode = map_and_decisions_view
		cost = 0
		visible = {
				    original_tag = USA
            has_country_flag = primaries_rep
		}
		days_remove = 7
		days_re_enable = 21
		highlight_states = { state = 384 }

		complete_effect = {
			set_country_flag = duke_propaganda
		}
		remove_effect = {
			clr_country_flag = duke_propaganda
			random_list = {
					20 = {
						country_event = usa_david_duke.1
					}
					20 = {
						country_event = usa_david_duke.2
					}
					20 = {
						country_event = usa_david_duke.3
					}
					20 = {
						country_event = usa_david_duke.4
					}
					20 = {
						country_event = usa_david_duke.5
					}
				}
		}
		ai_will_do = {
			factor = 0
		}
	}
	USA1992_Duke_campaign_SDA = {
		icon = generic_form_nation
		allowed = {
			    original_tag = USA
            has_country_flag = primaries_rep
		}
		available = {
			is_subject = no
			NOT = { has_country_flag = duke_propaganda }
		}
		on_map_mode = map_and_decisions_view
		cost = 0
		visible = {
				    original_tag = USA
            has_country_flag = primaries_rep
		}
		days_remove = 7
		days_re_enable = 21
		highlight_states = { state = 390 }

		complete_effect = {
			set_country_flag = duke_propaganda
		}
		remove_effect = {
			clr_country_flag = duke_propaganda
			random_list = {
					20 = {
						country_event = usa_david_duke.1
					}
					20 = {
						country_event = usa_david_duke.2
					}
					20 = {
						country_event = usa_david_duke.3
					}
					20 = {
						country_event = usa_david_duke.4
					}
					20 = {
						country_event = usa_david_duke.5
					}
				}
		}
		ai_will_do = {
			factor = 0
		}
	}
	USA1992_Duke_campaign_NDA = {
		icon = generic_form_nation
		allowed = {
			    original_tag = USA
            has_country_flag = primaries_rep
		}
		available = {
			is_subject = no
			NOT = { has_country_flag = duke_propaganda }
		}
		on_map_mode = map_and_decisions_view
		cost = 0
		visible = {
				    original_tag = USA
            has_country_flag = primaries_rep
		}
		days_remove = 7
		days_re_enable = 21
		highlight_states = { state = 389 }

		complete_effect = {
			set_country_flag = duke_propaganda
		}
		remove_effect = {
			clr_country_flag = duke_propaganda
			random_list = {
					20 = {
						country_event = usa_david_duke.1
					}
					20 = {
						country_event = usa_david_duke.2
					}
					20 = {
						country_event = usa_david_duke.3
					}
					20 = {
						country_event = usa_david_duke.4
					}
					20 = {
						country_event = usa_david_duke.5
					}
				}
		}
		ai_will_do = {
			factor = 0
		}
	}
	USA1992_Duke_campaign_MIN = {
		icon = generic_form_nation
		allowed = {
			    original_tag = USA
            has_country_flag = primaries_rep
		}
		available = {
			is_subject = no
			NOT = { has_country_flag = duke_propaganda }
		}
		on_map_mode = map_and_decisions_view
		cost = 0
		visible = {
				    original_tag = USA
            has_country_flag = primaries_rep
		}
		days_remove = 7
		days_re_enable = 21
		highlight_states = { state = 391 }

		complete_effect = {
			set_country_flag = duke_propaganda
		}
		remove_effect = {
			clr_country_flag = duke_propaganda
			random_list = {
					20 = {
						country_event = usa_david_duke.1
					}
					20 = {
						country_event = usa_david_duke.2
					}
					20 = {
						country_event = usa_david_duke.3
					}
					20 = {
						country_event = usa_david_duke.4
					}
					20 = {
						country_event = usa_david_duke.5
					}
				}
		}
		ai_will_do = {
			factor = 0
		}
	}
	USA1992_Duke_campaign_AYO = {
		icon = generic_form_nation
		allowed = {
			    original_tag = USA
            has_country_flag = primaries_rep
		}
		available = {
			is_subject = no
			NOT = { has_country_flag = duke_propaganda }
		}
		on_map_mode = map_and_decisions_view
		cost = 0
		visible = {
				    original_tag = USA
            has_country_flag = primaries_rep
		}
		days_remove = 7
		days_re_enable = 21
		highlight_states = { state = 392}

		complete_effect = {
			set_country_flag = duke_propaganda
		}
		remove_effect = {
			clr_country_flag = duke_propaganda
			random_list = {
					20 = {
						country_event = usa_david_duke.1
					}
					20 = {
						country_event = usa_david_duke.2
					}
					20 = {
						country_event = usa_david_duke.3
					}
					20 = {
						country_event = usa_david_duke.4
					}
					20 = {
						country_event = usa_david_duke.5
					}
				}
		}
		ai_will_do = {
			factor = 0
		}
	}
	USA1992_Duke_campaign_MIS = {
		icon = generic_form_nation
		allowed = {
			    original_tag = USA
            has_country_flag = primaries_rep
		}
		available = {
			is_subject = no
			NOT = { has_country_flag = duke_propaganda }
		}
		on_map_mode = map_and_decisions_view
		cost = 0
		visible = {
				    original_tag = USA
            has_country_flag = primaries_rep
		}
		days_remove = 7
		days_re_enable = 21
		highlight_states = { state = 373 }

		complete_effect = {
			set_country_flag = duke_propaganda
		}
		remove_effect = {
			clr_country_flag = duke_propaganda
			random_list = {
					20 = {
						country_event = usa_david_duke.1
					}
					20 = {
						country_event = usa_david_duke.2
					}
					20 = {
						country_event = usa_david_duke.3
					}
					20 = {
						country_event = usa_david_duke.4
					}
					20 = {
						country_event = usa_david_duke.5
					}
				}
		}
		ai_will_do = {
			factor = 0
		}
	}
	USA1992_Duke_campaign_ARK = {
		icon = generic_form_nation
		allowed = {
			    original_tag = USA
            has_country_flag = primaries_rep
		}
		available = {
			is_subject = no
			NOT = { has_country_flag = duke_propaganda }
		}
		on_map_mode = map_and_decisions_view
		cost = 0
		visible = {
				    original_tag = USA
            has_country_flag = primaries_rep
		}
		days_remove = 7
		days_re_enable = 21
		highlight_states = { state = 372 }

		complete_effect = {
			set_country_flag = duke_propaganda
		}
		remove_effect = {
			clr_country_flag = duke_propaganda
			random_list = {
					20 = {
						country_event = usa_david_duke.1
					}
					20 = {
						country_event = usa_david_duke.2
					}
					20 = {
						country_event = usa_david_duke.3
					}
					20 = {
						country_event = usa_david_duke.4
					}
					20 = {
						country_event = usa_david_duke.5
					}
				}
		}
		ai_will_do = {
			factor = 0
		}
	}
	USA1992_Duke_campaign_LUI = {
		icon = generic_form_nation
		allowed = {
			    original_tag = USA
            has_country_flag = primaries_rep
		}
		available = {
			is_subject = no
			NOT = { has_country_flag = duke_propaganda }
		}
		on_map_mode = map_and_decisions_view
		cost = 0
		visible = {
				    original_tag = USA
            has_country_flag = primaries_rep
		}
		days_remove = 7
		days_re_enable = 21
		highlight_states = { state = 962 }

		complete_effect = {
			set_country_flag = duke_propaganda
		}
		remove_effect = {
			clr_country_flag = duke_propaganda
			random_list = {
					20 = {
						country_event = usa_david_duke.1
					}
					20 = {
						country_event = usa_david_duke.2
					}
					20 = {
						country_event = usa_david_duke.3
					}
					20 = {
						country_event = usa_david_duke.4
					}
					20 = {
						country_event = usa_david_duke.5
					}
				}
		}
		ai_will_do = {
			factor = 0
		}
	}
	USA1992_Duke_campaign_WIN = {
		icon = generic_form_nation
		allowed = {
			    original_tag = USA
            has_country_flag = primaries_rep
		}
		available = {
			is_subject = no
			NOT = { has_country_flag = duke_propaganda }
		}
		on_map_mode = map_and_decisions_view
		cost = 0
		visible = {
				    original_tag = USA
            has_country_flag = primaries_rep
		}
		days_remove = 7
		days_re_enable = 21
		highlight_states = { state = 394 }

		complete_effect = {
			set_country_flag = duke_propaganda
		}
		remove_effect = {
			clr_country_flag = duke_propaganda
			random_list = {
					20 = {
						country_event = usa_david_duke.1
					}
					20 = {
						country_event = usa_david_duke.2
					}
					20 = {
						country_event = usa_david_duke.3
					}
					20 = {
						country_event = usa_david_duke.4
					}
					20 = {
						country_event = usa_david_duke.5
					}
				}
		}
		ai_will_do = {
			factor = 0
		}
	}
	USA1992_Duke_campaign_ILL = {
		icon = generic_form_nation
		allowed = {
			    original_tag = USA
            has_country_flag = primaries_rep
		}
		available = {
			is_subject = no
			NOT = { has_country_flag = duke_propaganda }
		}
		on_map_mode = map_and_decisions_view
		cost = 0
		visible = {
				    original_tag = USA
            has_country_flag = primaries_rep
		}
		days_remove = 7
		days_re_enable = 21
		highlight_states = { state = 936 }

		complete_effect = {
			set_country_flag = duke_propaganda
		}
		remove_effect = {
			clr_country_flag = duke_propaganda
			random_list = {
					20 = {
						country_event = usa_david_duke.1
					}
					20 = {
						country_event = usa_david_duke.2
					}
					20 = {
						country_event = usa_david_duke.3
					}
					20 = {
						country_event = usa_david_duke.4
					}
					20 = {
						country_event = usa_david_duke.5
					}
				}
		}
		ai_will_do = {
			factor = 0
		}
	}
	USA1992_Duke_campaign_MCI = {
		icon = generic_form_nation
		allowed = {
			    original_tag = USA
            has_country_flag = primaries_rep
		}
		available = {
			is_subject = no
			NOT = { has_country_flag = duke_propaganda }
		}
		on_map_mode = map_and_decisions_view
		cost = 0
		visible = {
				    original_tag = USA
            has_country_flag = primaries_rep
		}
		days_remove = 7
		days_re_enable = 21
		highlight_states = { state = 946 }

		complete_effect = {
			set_country_flag = duke_propaganda
		}
		remove_effect = {
			clr_country_flag = duke_propaganda
			random_list = {
					20 = {
						country_event = usa_david_duke.1
					}
					20 = {
						country_event = usa_david_duke.2
					}
					20 = {
						country_event = usa_david_duke.3
					}
					20 = {
						country_event = usa_david_duke.4
					}
					20 = {
						country_event = usa_david_duke.5
					}
				}
		}
		ai_will_do = {
			factor = 0
		}
	}
	USA1992_Duke_campaign_OHI = {
		icon = generic_form_nation
		allowed = {
			    original_tag = USA
            has_country_flag = primaries_rep
		}
		available = {
			is_subject = no
			NOT = { has_country_flag = duke_propaganda }
		}
		on_map_mode = map_and_decisions_view
		cost = 0
		visible = {
				    original_tag = USA
            has_country_flag = primaries_rep
		}
		days_remove = 7
		days_re_enable = 21
		highlight_states = { state = 932 }

		complete_effect = {
			set_country_flag = duke_propaganda
		}
		remove_effect = {
			clr_country_flag = duke_propaganda
			random_list = {
					20 = {
						country_event = usa_david_duke.1
					}
					20 = {
						country_event = usa_david_duke.2
					}
					20 = {
						country_event = usa_david_duke.3
					}
					20 = {
						country_event = usa_david_duke.4
					}
					20 = {
						country_event = usa_david_duke.5
					}
				}
		}
		ai_will_do = {
			factor = 0
		}
	}
	USA1992_Duke_campaign_KEN = {
		icon = generic_form_nation
		allowed = {
			    original_tag = USA
            has_country_flag = primaries_rep
		}
		available = {
			is_subject = no
			NOT = { has_country_flag = duke_propaganda }
		}
		on_map_mode = map_and_decisions_view
		cost = 0
		visible = {
				    original_tag = USA
            has_country_flag = primaries_rep
		}
		days_remove = 7
		days_re_enable = 21
		highlight_states = { state = 369 }

		complete_effect = {
			set_country_flag = duke_propaganda
		}
		remove_effect = {
			clr_country_flag = duke_propaganda
			random_list = {
					20 = {
						country_event = usa_david_duke.1
					}
					20 = {
						country_event = usa_david_duke.2
					}
					20 = {
						country_event = usa_david_duke.3
					}
					20 = {
						country_event = usa_david_duke.4
					}
					20 = {
						country_event = usa_david_duke.5
					}
				}
		}
		ai_will_do = {
			factor = 0
		}
	}
	USA1992_Duke_campaign_TEN = {
		icon = generic_form_nation
		allowed = {
			    original_tag = USA
            has_country_flag = primaries_rep
		}
		available = {
			is_subject = no
			NOT = { has_country_flag = duke_propaganda }
		}
		on_map_mode = map_and_decisions_view
		cost = 0
		visible = {
				    original_tag = USA
            has_country_flag = primaries_rep
		}
		days_remove = 7
		days_re_enable = 21
		highlight_states = { state = 368 }

		complete_effect = {
			set_country_flag = duke_propaganda
		}
		remove_effect = {
			clr_country_flag = duke_propaganda
			random_list = {
					20 = {
						country_event = usa_david_duke.1
					}
					20 = {
						country_event = usa_david_duke.2
					}
					20 = {
						country_event = usa_david_duke.3
					}
					20 = {
						country_event = usa_david_duke.4
					}
					20 = {
						country_event = usa_david_duke.5
					}
				}
		}
		ai_will_do = {
			factor = 0
		}
	}
	USA1992_Duke_campaign_MSS = {
		icon = generic_form_nation
		allowed = {
			    original_tag = USA
            has_country_flag = primaries_rep
		}
		available = {
			is_subject = no
			NOT = { has_country_flag = duke_propaganda }
		}
		on_map_mode = map_and_decisions_view
		cost = 0
		visible = {
				    original_tag = USA
            has_country_flag = primaries_rep
		}
		days_remove = 7
		days_re_enable = 21
		highlight_states = { state = 963 }

		complete_effect = {
			set_country_flag = duke_propaganda
		}
		remove_effect = {
			clr_country_flag = duke_propaganda
			random_list = {
					20 = {
						country_event = usa_david_duke.1
					}
					20 = {
						country_event = usa_david_duke.2
					}
					20 = {
						country_event = usa_david_duke.3
					}
					20 = {
						country_event = usa_david_duke.4
					}
					20 = {
						country_event = usa_david_duke.5
					}
				}
		}
		ai_will_do = {
			factor = 0
		}
	}
	USA1992_Duke_campaign_ALA = {
		icon = generic_form_nation
		allowed = {
			    original_tag = USA
            has_country_flag = primaries_rep
		}
		available = {
			is_subject = no
			NOT = { has_country_flag = duke_propaganda }
		}
		on_map_mode = map_and_decisions_view
		cost = 0
		visible = {
				    original_tag = USA
            has_country_flag = primaries_rep
		}
		days_remove = 7
		days_re_enable = 21
		highlight_states = { state = 951 }

		complete_effect = {
			set_country_flag = duke_propaganda
		}
		remove_effect = {
			clr_country_flag = duke_propaganda
			random_list = {
					20 = {
						country_event = usa_david_duke.1
					}
					20 = {
						country_event = usa_david_duke.2
					}
					20 = {
						country_event = usa_david_duke.3
					}
					20 = {
						country_event = usa_david_duke.4
					}
					20 = {
						country_event = usa_david_duke.5
					}
				}
		}
		ai_will_do = {
			factor = 0
		}
	}
	USA1992_Duke_campaign_FLO = {
		icon = generic_form_nation
		allowed = {
			    original_tag = USA
            has_country_flag = primaries_rep
		}
		available = {
			is_subject = no
			NOT = { has_country_flag = duke_propaganda }
		}
		on_map_mode = map_and_decisions_view
		cost = 0
		visible = {
				    original_tag = USA
            has_country_flag = primaries_rep
		}
		days_remove = 7
		days_re_enable = 21
		highlight_states = { state = 366 }

		complete_effect = {
			set_country_flag = duke_propaganda
		}
		remove_effect = {
			clr_country_flag = duke_propaganda
			random_list = {
					20 = {
						country_event = usa_david_duke.1
					}
					20 = {
						country_event = usa_david_duke.2
					}
					20 = {
						country_event = usa_david_duke.3
					}
					20 = {
						country_event = usa_david_duke.4
					}
					20 = {
						country_event = usa_david_duke.5
					}
				}
		}
		ai_will_do = {
			factor = 0
		}
	}
	USA1992_Duke_campaign_GEO = {
		icon = generic_form_nation
		allowed = {
			    original_tag = USA
            has_country_flag = primaries_rep
		}
		available = {
			is_subject = no
			NOT = { has_country_flag = duke_propaganda }
		}
		on_map_mode = map_and_decisions_view
		cost = 0
		visible = {
				    original_tag = USA
            has_country_flag = primaries_rep
		}
		days_remove = 7
		days_re_enable = 21
		highlight_states = { state = 365 }

		complete_effect = {
			set_country_flag = duke_propaganda
		}
		remove_effect = {
			clr_country_flag = duke_propaganda
			random_list = {
					20 = {
						country_event = usa_david_duke.1
					}
					20 = {
						country_event = usa_david_duke.2
					}
					20 = {
						country_event = usa_david_duke.3
					}
					20 = {
						country_event = usa_david_duke.4
					}
					20 = {
						country_event = usa_david_duke.5
					}
				}
		}
		ai_will_do = {
			factor = 0
		}
	}
	USA1992_Duke_campaign_SKA = {
		icon = generic_form_nation
		allowed = {
			    original_tag = USA
            has_country_flag = primaries_rep
		}
		available = {
			is_subject = no
			NOT = { has_country_flag = duke_propaganda }
		}
		on_map_mode = map_and_decisions_view
		cost = 0
		visible = {
				    original_tag = USA
            has_country_flag = primaries_rep
		}
		days_remove = 7
		days_re_enable = 21
		highlight_states = { state = 364 }

		complete_effect = {
			set_country_flag = duke_propaganda
		}
		remove_effect = {
			clr_country_flag = duke_propaganda
			random_list = {
					20 = {
						country_event = usa_david_duke.1
					}
					20 = {
						country_event = usa_david_duke.2
					}
					20 = {
						country_event = usa_david_duke.3
					}
					20 = {
						country_event = usa_david_duke.4
					}
					20 = {
						country_event = usa_david_duke.5
					}
				}
		}
		ai_will_do = {
			factor = 0
		}
	}
	USA1992_Duke_campaign_NKA = {
		icon = generic_form_nation
		allowed = {
			    original_tag = USA
            has_country_flag = primaries_rep
		}
		available = {
			is_subject = no
			NOT = { has_country_flag = duke_propaganda }
		}
		on_map_mode = map_and_decisions_view
		cost = 0
		visible = {
				    original_tag = USA
            has_country_flag = primaries_rep
		}
		days_remove = 7
		days_re_enable = 21
		highlight_states = { state = 363 }

		complete_effect = {
			set_country_flag = duke_propaganda
		}
		remove_effect = {
			clr_country_flag = duke_propaganda
			random_list = {
					20 = {
						country_event = usa_david_duke.1
					}
					20 = {
						country_event = usa_david_duke.2
					}
					20 = {
						country_event = usa_david_duke.3
					}
					20 = {
						country_event = usa_david_duke.4
					}
					20 = {
						country_event = usa_david_duke.5
					}
				}
		}
		ai_will_do = {
			factor = 0
		}
	}
	USA1992_Duke_campaign_VNA = {
		icon = generic_form_nation
		allowed = {
			    original_tag = USA
            has_country_flag = primaries_rep
		}
		available = {
			is_subject = no
			NOT = { has_country_flag = duke_propaganda }
		}
		on_map_mode = map_and_decisions_view
		cost = 0
		visible = {
				    original_tag = USA
            has_country_flag = primaries_rep
		}
		days_remove = 7
		days_re_enable = 21
		highlight_states = { state = 930 }

		complete_effect = {
			set_country_flag = duke_propaganda
		}
		remove_effect = {
			clr_country_flag = duke_propaganda
			random_list = {
					20 = {
						country_event = usa_david_duke.1
					}
					20 = {
						country_event = usa_david_duke.2
					}
					20 = {
						country_event = usa_david_duke.3
					}
					20 = {
						country_event = usa_david_duke.4
					}
					20 = {
						country_event = usa_david_duke.5
					}
				}
		}
		ai_will_do = {
			factor = 0
		}
	}
	USA1992_Duke_campaign_WVA = {
		icon = generic_form_nation
		allowed = {
			    original_tag = USA
            has_country_flag = primaries_rep
		}
		available = {
			is_subject = no
			NOT = { has_country_flag = duke_propaganda }
		}
		on_map_mode = map_and_decisions_view
		cost = 0
		visible = {
				    original_tag = USA
            has_country_flag = primaries_rep
		}
		days_remove = 7
		days_re_enable = 21
		highlight_states = { state = 328 }

		complete_effect = {
			set_country_flag = duke_propaganda
		}
		remove_effect = {
			clr_country_flag = duke_propaganda
			random_list = {
					20 = {
						country_event = usa_david_duke.1
					}
					20 = {
						country_event = usa_david_duke.2
					}
					20 = {
						country_event = usa_david_duke.3
					}
					20 = {
						country_event = usa_david_duke.4
					}
					20 = {
						country_event = usa_david_duke.5
					}
				}
		}
		ai_will_do = {
			factor = 0
		}
	}
	USA1992_Duke_campaign_MLA = {
		icon = generic_form_nation
		allowed = {
			    original_tag = USA
            has_country_flag = primaries_rep
		}
		available = {
			is_subject = no
			NOT = { has_country_flag = duke_propaganda }
		}
		on_map_mode = map_and_decisions_view
		cost = 0
		visible = {
				    original_tag = USA
            has_country_flag = primaries_rep
		}
		days_remove = 7
		days_re_enable = 21
		highlight_states = { state = 361 }

		complete_effect = {
			set_country_flag = duke_propaganda
		}
		remove_effect = {
			clr_country_flag = duke_propaganda
			random_list = {
					20 = {
						country_event = usa_david_duke.1
					}
					20 = {
						country_event = usa_david_duke.2
					}
					20 = {
						country_event = usa_david_duke.3
					}
					20 = {
						country_event = usa_david_duke.4
					}
					20 = {
						country_event = usa_david_duke.5
					}
				}
		}
		ai_will_do = {
			factor = 0
		}
	}
	USA1992_Duke_campaign_DEL = {
		icon = generic_form_nation
		allowed = {
			    original_tag = USA
            has_country_flag = primaries_rep
		}
		available = {
			is_subject = no
			NOT = { has_country_flag = duke_propaganda }
		}
		on_map_mode = map_and_decisions_view
		cost = 0
		visible = {
				    original_tag = USA
            has_country_flag = primaries_rep
		}
		days_remove = 7
		days_re_enable = 21
		highlight_states = { state = 927 }

		complete_effect = {
			set_country_flag = duke_propaganda
		}
		remove_effect = {
			clr_country_flag = duke_propaganda
			random_list = {
					20 = {
						country_event = usa_david_duke.1
					}
					20 = {
						country_event = usa_david_duke.2
					}
					20 = {
						country_event = usa_david_duke.3
					}
					20 = {
						country_event = usa_david_duke.4
					}
					20 = {
						country_event = usa_david_duke.5
					}
				}
		}
		ai_will_do = {
			factor = 0
		}
	}
	USA1992_Duke_campaign_PEN = {
		icon = generic_form_nation
		allowed = {
			    original_tag = USA
            has_country_flag = primaries_rep
		}
		available = {
			is_subject = no
			NOT = { has_country_flag = duke_propaganda }
		}
		on_map_mode = map_and_decisions_view
		cost = 0
		visible = {
				    original_tag = USA
            has_country_flag = primaries_rep
		}
		days_remove = 7
		days_re_enable = 21
		highlight_states = { state = 919 }

		complete_effect = {
			set_country_flag = duke_propaganda
		}
		remove_effect = {
			clr_country_flag = duke_propaganda
			random_list = {
					20 = {
						country_event = usa_david_duke.1
					}
					20 = {
						country_event = usa_david_duke.2
					}
					20 = {
						country_event = usa_david_duke.3
					}
					20 = {
						country_event = usa_david_duke.4
					}
					20 = {
						country_event = usa_david_duke.5
					}
				}
		}
		ai_will_do = {
			factor = 0
		}
	}
	USA1992_Duke_campaign_NJE = {
		icon = generic_form_nation
		allowed = {
			    original_tag = USA
            has_country_flag = primaries_rep
		}
		available = {
			is_subject = no
			NOT = { has_country_flag = duke_propaganda }
		}
		on_map_mode = map_and_decisions_view
		cost = 0
		visible = {
				    original_tag = USA
            has_country_flag = primaries_rep
		}
		days_remove = 7
		days_re_enable = 21
		highlight_states = { state = 359 }

		complete_effect = {
			set_country_flag = duke_propaganda
		}
		remove_effect = {
			clr_country_flag = duke_propaganda
			random_list = {
					20 = {
						country_event = usa_david_duke.1
					}
					20 = {
						country_event = usa_david_duke.2
					}
					20 = {
						country_event = usa_david_duke.3
					}
					20 = {
						country_event = usa_david_duke.4
					}
					20 = {
						country_event = usa_david_duke.5
					}
				}
		}
		ai_will_do = {
			factor = 0
		}
	}
	USA1992_Duke_campaign_NYO = {
		icon = generic_form_nation
		allowed = {
			    original_tag = USA
            has_country_flag = primaries_rep
		}
		available = {
			is_subject = no
			NOT = { has_country_flag = duke_propaganda }
		}
		on_map_mode = map_and_decisions_view
		cost = 0
		visible = {
				    original_tag = USA
            has_country_flag = primaries_rep
		}
		days_remove = 7
		days_re_enable = 21
		highlight_states = { state = 358 }

		complete_effect = {
			set_country_flag = duke_propaganda
		}
		remove_effect = {
			clr_country_flag = duke_propaganda
			random_list = {
					20 = {
						country_event = usa_david_duke.1
					}
					20 = {
						country_event = usa_david_duke.2
					}
					20 = {
						country_event = usa_david_duke.3
					}
					20 = {
						country_event = usa_david_duke.4
					}
					20 = {
						country_event = usa_david_duke.5
					}
				}
		}
		ai_will_do = {
			factor = 0
		}
	}
	USA1992_Duke_campaign_KON = {
		icon = generic_form_nation
		allowed = {
			    original_tag = USA
            has_country_flag = primaries_rep
		}
		available = {
			is_subject = no
			NOT = { has_country_flag = duke_propaganda }
		}
		on_map_mode = map_and_decisions_view
		cost = 0
		visible = {
				    original_tag = USA
            has_country_flag = primaries_rep
		}
		days_remove = 7
		days_re_enable = 21
		highlight_states = { state = 915 }

		complete_effect = {
			set_country_flag = duke_propaganda
		}
		remove_effect = {
			clr_country_flag = duke_propaganda
			random_list = {
					20 = {
						country_event = usa_david_duke.1
					}
					20 = {
						country_event = usa_david_duke.2
					}
					20 = {
						country_event = usa_david_duke.3
					}
					20 = {
						country_event = usa_david_duke.4
					}
					20 = {
						country_event = usa_david_duke.5
					}
				}
		}
		ai_will_do = {
			factor = 0
		}
	}
	USA1992_Duke_campaign_ROI = {
		icon = generic_form_nation
		allowed = {
			    original_tag = USA
            has_country_flag = primaries_rep
		}
		available = {
			is_subject = no
			NOT = { has_country_flag = duke_propaganda }
		}
		on_map_mode = map_and_decisions_view
		cost = 0
		visible = {
				    original_tag = USA
            has_country_flag = primaries_rep
		}
		days_remove = 7
		days_re_enable = 21
		highlight_states = { state = 914 }

		complete_effect = {
			set_country_flag = duke_propaganda
		}
		remove_effect = {
			clr_country_flag = duke_propaganda
			random_list = {
					20 = {
						country_event = usa_david_duke.1
					}
					20 = {
						country_event = usa_david_duke.2
					}
					20 = {
						country_event = usa_david_duke.3
					}
					20 = {
						country_event = usa_david_duke.4
					}
					20 = {
						country_event = usa_david_duke.5
					}
				}
		}
		ai_will_do = {
			factor = 0
		}
	}
	USA1992_Duke_campaign_MSA = {
		icon = generic_form_nation
		allowed = {
			    original_tag = USA
            has_country_flag = primaries_rep
		}
		available = {
			is_subject = no
			NOT = { has_country_flag = duke_propaganda }
		}
		on_map_mode = map_and_decisions_view
		cost = 0
		visible = {
				    original_tag = USA
            has_country_flag = primaries_rep
		}
		days_remove = 7
		days_re_enable = 21
		highlight_states = { state = 357 }

		complete_effect = {
			set_country_flag = duke_propaganda
		}
		remove_effect = {
			clr_country_flag = duke_propaganda
			random_list = {
					20 = {
						country_event = usa_david_duke.1
					}
					20 = {
						country_event = usa_david_duke.2
					}
					20 = {
						country_event = usa_david_duke.3
					}
					20 = {
						country_event = usa_david_duke.4
					}
					20 = {
						country_event = usa_david_duke.5
					}
				}
		}
		ai_will_do = {
			factor = 0
		}
	}
	USA1992_Duke_campaign_VER = {
		icon = generic_form_nation
		allowed = {
			    original_tag = USA
            has_country_flag = primaries_rep
		}
		available = {
			is_subject = no
			NOT = { has_country_flag = duke_propaganda }
		}
		on_map_mode = map_and_decisions_view
		cost = 0
		visible = {
				    original_tag = USA
            has_country_flag = primaries_rep
		}
		days_remove = 7
		days_re_enable = 21
		highlight_states = { state = 913 }

		complete_effect = {
			set_country_flag = duke_propaganda
		}
		remove_effect = {
			clr_country_flag = duke_propaganda
			random_list = {
					20 = {
						country_event = usa_david_duke.1
					}
					20 = {
						country_event = usa_david_duke.2
					}
					20 = {
						country_event = usa_david_duke.3
					}
					20 = {
						country_event = usa_david_duke.4
					}
					20 = {
						country_event = usa_david_duke.5
					}
				}
		}
		ai_will_do = {
			factor = 0
		}
	}
	USA1992_Duke_campaign_NGA = {
		icon = generic_form_nation
		allowed = {
			    original_tag = USA
            has_country_flag = primaries_rep
		}
		available = {
			is_subject = no
			NOT = { has_country_flag = duke_propaganda }
		}
		on_map_mode = map_and_decisions_view
		cost = 0
		visible = {
				    original_tag = USA
            has_country_flag = primaries_rep
		}
		days_remove = 7
		days_re_enable = 21
		highlight_states = { state = 912 }

		complete_effect = {
			set_country_flag = duke_propaganda
		}
		remove_effect = {
			clr_country_flag = duke_propaganda
			random_list = {
					20 = {
						country_event = usa_david_duke.1
					}
					20 = {
						country_event = usa_david_duke.2
					}
					20 = {
						country_event = usa_david_duke.3
					}
					20 = {
						country_event = usa_david_duke.4
					}
					20 = {
						country_event = usa_david_duke.5
					}
				}
		}
		ai_will_do = {
			factor = 0
		}
	}
	USA1992_Duke_campaign_MEN = {
		icon = generic_form_nation
		allowed = {
			    original_tag = USA
            has_country_flag = primaries_rep
		}
		available = {
			is_subject = no
			NOT = { has_country_flag = duke_propaganda }
		}
		on_map_mode = map_and_decisions_view
		cost = 0
		visible = {
				    original_tag = USA
            has_country_flag = primaries_rep
				has_country_flag = primaries_rep
		}
		days_remove = 7
		days_re_enable = 21
		highlight_states = { state = 911 }

		complete_effect = {
			set_country_flag = duke_propaganda
		}
		remove_effect = {
			clr_country_flag = duke_propaganda
			random_list = {
					20 = {
						country_event = usa_david_duke.1
					}
					20 = {
						country_event = usa_david_duke.2
					}
					20 = {
						country_event = usa_david_duke.3
					}
					20 = {
						country_event = usa_david_duke.4
					}
					20 = {
						country_event = usa_david_duke.5
					}
				}
		}
		ai_will_do = {
			factor = 0
		}
	}
}
USA1992_President_campaign = {
	USA1992_Duke_start_president_race = {
		icon = generic_form_nation
		allowed = {
			    original_tag = USA
		}
		available = {
			is_subject = no
		}
		cost = 0
		visible = {
			original_tag = USA
			REP_Representives_against < REP_duke
		}
		days_remove = 7

		complete_effect = {

		}
		remove_effect = {
			country_event = { id = usa_tne_90s.1 }
		}
		ai_will_do = {
			factor = 0
		}
	}
	USA1992_Bush_start_president_race = {
		icon = generic_form_nation
		allowed = {
			    original_tag = USA
		}
		available = {
			is_subject = no
		}
		cost = 0
		visible = {
			original_tag = USA
			REP_Representives_against > REP_duke
		}
		days_remove = 7

		complete_effect = {

		}
		remove_effect = {
			country_event = { id = usa_tne_90s.1 }
		}
		ai_will_do = {
			factor = 0
		}
	}
}
