on_actions = {
	on_startup = {
		effect = {
			16 = {
				add_province_modifier = {
					static_modifiers = { terrain_paris }
					province = { id = 11506	}
				}
			}
	
		}
	}
}
on_actions = {
	on_startup = {
		effect = {
			658 = {
				add_province_modifier = {
					static_modifiers = { terrain_abudhabi }
					province = { id = 2048	}
				}
			}
		}
	}
}
on_actions = {
	on_startup = {
		effect = {
           659= {
               add_province_modifier = {
                   static_modifiers = {terrain_aden}
                   province = { id =5074}
               }
           }
       }
   }
}

on_actions = {
	on_startup = {
		effect = {
           677= {
               add_province_modifier = {
                   static_modifiers = {terrain_aleppo}
                   province = { id =12473}
               }
           }
       }
   }
}

on_actions = {
	on_startup = {
		effect = {
           455= {
               add_province_modifier = {
                   static_modifiers = {terrain_amman}
                   province = { id =7151}
               }
           }
       }
   }
}

on_actions = {
	on_startup = {
		effect = {
           291= {
               add_province_modifier = {
                   static_modifiers = {terrain_baghdad}
                   province = { id =2097}
               }
           }
       }
   }
}

on_actions = {
	on_startup = {
		effect = {
           1017= {
               add_province_modifier = {
                   static_modifiers = {terrain_basrah}
                   province = { id =2089}
               }
           }
       }
   }
}

on_actions = {
	on_startup = {
		effect = {
           553= {
               add_province_modifier = {
                   static_modifiers = {terrain_beirut}
                   province = { id =792}
               }
           }
       }
   }
}

on_actions = {
	on_startup = {
		effect = {
           554= {
               add_province_modifier = {
                   static_modifiers = {terrain_damascus}
                   province = { id =4111}
               }
           }
       }
   }
}

on_actions = {
	on_startup = {
		effect = {
           1018= {
               add_province_modifier = {
                   static_modifiers = {terrain_damman}
                   province = { id =12702}
               }
           }
       }
   }
}

on_actions = {
	on_startup = {
		effect = {
           680= {
               add_province_modifier = {
                   static_modifiers = {terrain_deirerzor}
                   province = { id =2013}
               }
           }
       }
   }
}

on_actions = {
	on_startup = {
		effect = {
           890= {
               add_province_modifier = {
                   static_modifiers = {terrain_doha}
                   province = { id =8051}
               }
           }
       }
   }
}

on_actions = {
	on_startup = {
		effect = {
           658= {
               add_province_modifier = {
                   static_modifiers = {terrain_dubai}
                   province = { id =7960}
               }
           }
       }
   }
}

on_actions = {
	on_startup = {
		effect = {
           1016= {
               add_province_modifier = {
                   static_modifiers = {terrain_erbil}
                   province = { id =3916}
               }
           }
       }
   }
}

on_actions = {
	on_startup = {
		effect = {
           763= {
               add_province_modifier = {
                   static_modifiers = {terrain_haifa}
                   province = { id =1201}
               }
           }
       }
   }
}

on_actions = {
	on_startup = {
		effect = {
           797= {
               add_province_modifier = {
                   static_modifiers = {terrain_homs}
                   province = { id =1056}
               }
           }
       }
   }
}


on_actions = {
	on_startup = {
		effect = {
           679= {
               add_province_modifier = {
                   static_modifiers = {terrain_jeddah}
                   province = { id =12883}
               }
           }
       }
   }
}

on_actions = {
	on_startup = {
		effect = {
           454= {
               add_province_modifier = {
                   static_modifiers = {terrain_jerusalem}
                   province = { id =1086}
               }
           }
       }
   }
}

on_actions = {
	on_startup = {
		effect = {
           1021= {
               add_province_modifier = {
                   static_modifiers = {terrain_khamis}
                   province = { id =8073}
               }
           }
       }
   }
}

on_actions = {
	on_startup = {
		effect = {
           1016= {
               add_province_modifier = {
                   static_modifiers = {terrain_kirkuk}
                   province = { id =8123}
               }
           }
       }
   }
}

on_actions = {
	on_startup = {
		effect = {
           656= {
               add_province_modifier = {
                   static_modifiers = {terrain_kuwait}
                   province = { id =8085}
               }
           }
       }
   }
}

on_actions = {
	on_startup = {
		effect = {
           183= {
               add_province_modifier = {
                   static_modifiers = {terrain_limassol}
                   province = { id =13256}
               }
           }
       }
   }
}

on_actions = {
	on_startup = {
		effect = {
           889= {
               add_province_modifier = {
                   static_modifiers = {terrain_manama}
                   province = { id =13242}
               }
           }
       }
   }
}

on_actions = {
	on_startup = {
		effect = {
           679= {
               add_province_modifier = {
                   static_modifiers = {terrain_mecca}
                   province = { id =5037}
               }
           }
       }
   }
}

on_actions = {
	on_startup = {
		effect = {
           679= {
               add_province_modifier = {
                   static_modifiers = {terrain_medina}
                   province = { id =12758}
               }
           }
       }
   }
}

on_actions = {
	on_startup = {
		effect = {
           676= {
               add_province_modifier = {
                   static_modifiers = {terrain_mosul}
                   province = { id =10106}
               }
           }
       }
   }
}

on_actions = {
	on_startup = {
		effect = {
           1023= {
               add_province_modifier = {
                   static_modifiers = {terrain_mukalla}
                   province = { id =2029}
               }
           }
       }
   }
}

on_actions = {
	on_startup = {
		effect = {
           294= {
               add_province_modifier = {
                   static_modifiers = {terrain_muscat}
                   province = { id =10760}
               }
           }
       }
   }
}

on_actions = {
	on_startup = {
		effect = {
           183= {
               add_province_modifier = {
                   static_modifiers = {terrain_n_nicosia}
                   province = { id =7193}
               }
           }
       }
   }
}

on_actions = {
	on_startup = {
		effect = {
           675= {
               add_province_modifier = {
                   static_modifiers = {terrain_najaf}
                   province = { id =10876}
               }
           }
       }
   }
}

on_actions = {
	on_startup = {
		effect = {
           763= {
               add_province_modifier = {
                   static_modifiers = {terrain_nazareth}
                   province = { id =7107}
               }
           }
       }
   }
}

on_actions = {
	on_startup = {
		effect = {
           885= {
               add_province_modifier = {
                   static_modifiers = {terrain_nicosia}
                   province = { id =11984}
               }
           }
       }
   }
}

on_actions = {
	on_startup = {
		effect = {
           1022= {
               add_province_modifier = {
                   static_modifiers = {terrain_qalansiyah}
                   province = { id =8000}
               }
           }
       }
   }
}

on_actions = {
	on_startup = {
		effect = {
           886= {
               add_province_modifier = {
                   static_modifiers = {terrain_ramallah}
                   province = { id =13217}
               }
           }
       }
   }
}

on_actions = {
	on_startup = {
		effect = {
           820= {
               add_province_modifier = {
                   static_modifiers = {terrain_raqqah}
                   province = { id =1634}
               }
           }
       }
   }
}

on_actions = {
	on_startup = {
		effect = {
           1019= {
               add_province_modifier = {
                   static_modifiers = {terrain_riyardh}
                   province = { id =12727}
               }
           }
       }
   }
}

on_actions = {
	on_startup = {
		effect = {
           293= {
               add_province_modifier = {
                   static_modifiers = {terrain_sanaa}
                   province = { id =10840}
               }
           }
       }
   }
}

on_actions = {
	on_startup = {
		effect = {
           1020= {
               add_province_modifier = {
                   static_modifiers = {terrain_tabuk}
                   province = { id =12101}
               }
           }
       }
   }
}

on_actions = {
	on_startup = {
		effect = {
           293= {
               add_province_modifier = {
                   static_modifiers = {terrain_taizz}
                   province = { id =10752}
               }
           }
       }
   }
}

on_actions = {
	on_startup = {
		effect = {
           454= {
               add_province_modifier = {
                   static_modifiers = {terrain_telaviv}
                   province = { id =4206}
               }
           }
       }
   }
}

on_actions = {
	on_startup = {
		effect = {
           553= {
               add_province_modifier = {
                   static_modifiers = {terrain_tyre}
                   province = { id =11919}
               }
           }
       }
   }
}

on_actions = {
	on_startup = {
		effect = {
           820= {
               add_province_modifier = {
                   static_modifiers = {terrain_alhasakah}
                   province = { id =1578}
               }
           }
       }
   }
}

on_actions = {
	on_startup = {
		effect = {
           797= {
               add_province_modifier = {
                   static_modifiers = {terrain_homs}
                   province = { id =1056}
               }
           }
       }
   }
}

on_actions = {
	on_startup = {
		effect = {
           553= {
               add_province_modifier = {
                   static_modifiers = {terrain_ramallah}
                   province = { id =13217}
               }
           }
       }
   }
}

on_actions = {
	on_startup = {
		effect = {
           778= {
               add_province_modifier = {
                   static_modifiers = {terrain_alessandria}
                   province = { id =9741}
               }
           }
       }
   }
}

on_actions = {
	on_startup = {
		effect = {
           157= {
               add_province_modifier = {
                   static_modifiers = {terrain_ancona}
                   province = { id =925}
               }
           }
       }
   }
}

on_actions = {
	on_startup = {
		effect = {
           2= {
               add_province_modifier = {
                   static_modifiers = {terrain_anzio}
                   province = { id =11846}
               }
           }
       }
   }
}

on_actions = {
	on_startup = {
		effect = {
           162= {
               add_province_modifier = {
                   static_modifiers = {terrain_arezzo}
                   province = { id =9879}
               }
           }
       }
   }
}

on_actions = {
	on_startup = {
		effect = {
           235= {
               add_province_modifier = {
                   static_modifiers = {terrain_armavir}
                   province = { id =735}
               }
           }
       }
   }
}

on_actions = {
	on_startup = {
		effect = {
           778= {
               add_province_modifier = {
                   static_modifiers = {terrain_asti}
                   province = { id =11730}
               }
           }
       }
   }
}

on_actions = {
	on_startup = {
		effect = {
           236= {
               add_province_modifier = {
                   static_modifiers = {terrain_astrakhan}
                   province = { id =9753}
               }
           }
       }
   }
}

on_actions = {
	on_startup = {
		effect = {
           156= {
               add_province_modifier = {
                   static_modifiers = {terrain_bari}
                   province = { id =9784}
               }
           }
       }
   }
}

on_actions = {
	on_startup = {
		effect = {
           117= {
               add_province_modifier = {
                   static_modifiers = {terrain_benevento}
                   province = { id =11803}
               }
           }
       }
   }
}

on_actions = {
	on_startup = {
		effect = {
           200= {
               add_province_modifier = {
                   static_modifiers = {terrain_berdyansk}
                   province = { id =9571}
               }
           }
       }
   }
}

on_actions = {
	on_startup = {
		effect = {
           39= {
               add_province_modifier = {
                   static_modifiers = {terrain_bergamo}
                   province = { id =969}
               }
           }
       }
   }
}

on_actions = {
	on_startup = {
		effect = {
           161= {
               add_province_modifier = {
                   static_modifiers = {terrain_bologna}
                   province = { id =6606}
               }
           }
       }
   }
}

on_actions = {
	on_startup = {
		effect = {
           783= {
               add_province_modifier = {
                   static_modifiers = {terrain_bolzano}
                   province = { id =9630}
               }
           }
       }
   }
}

on_actions = {
	on_startup = {
		effect = {
           39= {
               add_province_modifier = {
                   static_modifiers = {terrain_brescia}
                   province = { id =6631}
               }
           }
       }
   }
}

on_actions = {
	on_startup = {
		effect = {
           114= {
               add_province_modifier = {
                   static_modifiers = {terrain_cagliari}
                   province = { id =11773}
               }
           }
       }
   }
}

on_actions = {
	on_startup = {
		effect = {
           203= {
               add_province_modifier = {
                   static_modifiers = {terrain_cherkasy}
                   province = { id =488}
               }
           }
       }
   }
}

on_actions = {
	on_startup = {
		effect = {
           233= {
               add_province_modifier = {
                   static_modifiers = {terrain_сherkessk}
                   province = { id =9674}
               }
           }
       }
   }
}

on_actions = {
	on_startup = {
		effect = {
           193= {
               add_province_modifier = {
                   static_modifiers = {terrain_chernihov}
                   province = { id =3480}
               }
           }
       }
   }
}

on_actions = {
	on_startup = {
		effect = {
           80= {
               add_province_modifier = {
                   static_modifiers = {terrain_chernovtsi}
                   province = { id =577}
               }
           }
       }
   }
}

on_actions = {
	on_startup = {
		effect = {
           782= {
               add_province_modifier = {
                   static_modifiers = {terrain_cremona}
                   province = { id =773}
               }
           }
       }
   }
}

on_actions = {
	on_startup = {
		effect = {
           780= {
               add_province_modifier = {
                   static_modifiers = {terrain_daugavpis}
                   province = { id =310}
               }
           }
       }
   }
}

on_actions = {
	on_startup = {
		effect = {
           232= {
               add_province_modifier = {
                   static_modifiers = {terrain_derbent}
                   province = { id =7624}
               }
           }
       }
   }
}

on_actions = {
	on_startup = {
		effect = {
           226= {
               add_province_modifier = {
                   static_modifiers = {terrain_dnepropetrovsk}
                   province = { id =11437}
               }
           }
       }
   }
}

on_actions = {
	on_startup = {
		effect = {
           226= {
               add_province_modifier = {
                   static_modifiers = {terrain_dneprodzerzhynsk}
                   province = { id =9433}
               }
           }
       }
   }
}

on_actions = {
	on_startup = {
		effect = {
           227= {
               add_province_modifier = {
                   static_modifiers = {terrain_Donetsk}
                   province = { id =6474}
               }
           }
       }
   }
}

on_actions = {
	on_startup = {
		effect = {
           237= {
               add_province_modifier = {
                   static_modifiers = {terrain_elista}
                   province = { id =6794}
               }
           }
       }
   }
}

on_actions = {
	on_startup = {
		effect = {
           161= {
               add_province_modifier = {
                   static_modifiers = {terrain_ferrara}
                   province = { id =6793}
               }
           }
       }
   }
}

on_actions = {
	on_startup = {
		effect = {
           162= {
               add_province_modifier = {
                   static_modifiers = {terrain_florence}
                   province = { id =9907}
               }
           }
       }
   }
}

on_actions = {
	on_startup = {
		effect = {
           779= {
               add_province_modifier = {
                   static_modifiers = {terrain_genoa}
                   province = { id =6788}
               }
           }
       }
   }
}

on_actions = {
	on_startup = {
		effect = {
           770= {
               add_province_modifier = {
                   static_modifiers = {terrain_grosseto}
                   province = { id =6862}
               }
           }
       }
   }
}

on_actions = {
	on_startup = {
		effect = {
           888= {
               add_province_modifier = {
                   static_modifiers = {terrain_grozny}
                   province = { id =3672}
               }
           }
       }
   }
}

on_actions = {
	on_startup = {
		effect = {
           199= {
               add_province_modifier = {
                   static_modifiers = {terrain_hmelnitsky}
                   province = { id =6429}
               }
           }
       }
   }
}

on_actions = {
	on_startup = {
		effect = {
           89= {
               add_province_modifier = {
                   static_modifiers = {terrain_ivanofrankovsk}
                   province = { id =11411}
               }
           }
       }
   }
}

on_actions = {
	on_startup = {
		effect = {
           777= {
               add_province_modifier = {
                   static_modifiers = {terrain_ivrea}
                   province = { id =3782}
               }
           }
       }
   }
}

on_actions = {
	on_startup = {
		effect = {
           190= {
               add_province_modifier = {
                   static_modifiers = {terrain_jurmala}
                   province = { id =6222}
               }
           }
       }
   }
}

on_actions = {
	on_startup = {
		effect = {
           218= {
               add_province_modifier = {
                   static_modifiers = {terrain_kamenskshahtinsk}
                   province = { id =11434}
               }
           }
       }
   }
}

on_actions = {
	on_startup = {
		effect = {
           137= {
               add_province_modifier = {
                   static_modifiers = {terrain_kerch}
                   province = { id =9680}
               }
           }
       }
   }
}

on_actions = {
	on_startup = {
		effect = {
           221= {
               add_province_modifier = {
                   static_modifiers = {terrain_kharkiv}
                   province = { id = 418}
               }
           }
       }
   }
}

on_actions = {
	on_startup = {
		effect = {
           196= {
               add_province_modifier = {
                   static_modifiers = {terrain_kherson}
                   province = { id =13238}
               }
           }
       }
   }
}

on_actions = {
	on_startup = {
		effect = {
           203= {
               add_province_modifier = {
                   static_modifiers = {terrain_kirovohrad}
                   province = { id =3452}
               }
           }
       }
   }
}

on_actions = {
	on_startup = {
		effect = {
           227= {
               add_province_modifier = {
                   static_modifiers = {terrain_kramatorsk}
                   province = { id =502}
               }
           }
       }
   }
}

on_actions = {
	on_startup = {
		effect = {
           234= {
               add_province_modifier = {
                   static_modifiers = {terrain_krasnodar}
                   province = { id =3734}
               }
           }
       }
   }
}

on_actions = {
	on_startup = {
		effect = {
           908= {
               add_province_modifier = {
                   static_modifiers = {terrain_kremenchuk}
                   province = { id =6495}
               }
           }
       }
   }
}

on_actions = {
	on_startup = {
		effect = {
           226= {
               add_province_modifier = {
                   static_modifiers = {terrain_kriviy_rih}
                   province = { id =11561}
               }
           }
       }
   }
}

on_actions = {
	on_startup = {
		effect = {
           220= {
               add_province_modifier = {
                   static_modifiers = {terrain_kursk}
                   province = { id =3580}
               }
           }
       }
   }
}

on_actions = {
	on_startup = {
		effect = {
           202= {
               add_province_modifier = {
                   static_modifiers = {terrain_kyiv}
                   province = { id =525}
               }
           }
       }
   }
}

on_actions = {
	on_startup = {
		effect = {
           774= {
               add_province_modifier = {
                   static_modifiers = {terrain_la_spezia}
                   province = { id =6973}
               }
           }
       }
   }
}

on_actions = {
	on_startup = {
		effect = {
           156= {
               add_province_modifier = {
                   static_modifiers = {terrain_lecce}
                   province = { id =11998}
               }
           }
       }
   }
}

on_actions = {
	on_startup = {
		effect = {
           190= {
               add_province_modifier = {
                   static_modifiers = {terrain_liepaja}
                   province = { id =9262}
               }
           }
       }
   }
}

on_actions = {
	on_startup = {
		effect = {
           770= {
               add_province_modifier = {
                   static_modifiers = {terrain_livorno}
                   province = { id =11833}
               }
           }
       }
   }
}

on_actions = {
	on_startup = {
		effect = {
           228= {
               add_province_modifier = {
                   static_modifiers = {terrain_luhansk}
                   province = { id =9461}
               }
           }
       }
   }
}

on_actions = {
	on_startup = {
		effect = {
           93= {
               add_province_modifier = {
                   static_modifiers = {terrain_lutsk}
                   province = { id =513}
               }
           }
       }
   }
}

on_actions = {
	on_startup = {
		effect = {
           91= {
               add_province_modifier = {
                   static_modifiers = {terrain_lviv}
                   province = { id =11479}
               }
           }
       }
   }
}

on_actions = {
	on_startup = {
		effect = {
           232= {
               add_province_modifier = {
                   static_modifiers = {terrain_makhachkala}
                   province = { id =3668}
               }
           }
       }
   }
}

on_actions = {
	on_startup = {
		effect = {
           782= {
               add_province_modifier = {
                   static_modifiers = {terrain_mantua}
                   province = { id =3776}
               }
           }
       }
   }
}

on_actions = {
	on_startup = {
		effect = {
           227= {
               add_province_modifier = {
                   static_modifiers = {terrain_mariupol}
                   province = { id =6420}
               }
           }
       }
   }
}

on_actions = {
	on_startup = {
		effect = {
           897= {
               add_province_modifier = {
                   static_modifiers = {terrain_maykop}
                   province = { id =3717}
               }
           }
       }
   }
}

on_actions = {
	on_startup = {
		effect = {
           200= {
               add_province_modifier = {
                   static_modifiers = {terrain_melitopol}
                   province = { id =11700}
               }
           }
       }
   }
}

on_actions = {
	on_startup = {
		effect = {
           115= {
               add_province_modifier = {
                   static_modifiers = {terrain_messina}
                   province = { id =4159}
               }
           }
       }
   }
}

on_actions = {
	on_startup = {
		effect = {
           265= {
               add_province_modifier = {
                   static_modifiers = {terrain_mikhaylovka}
                   province = { id =487}
               }
           }
       }
   }
}

on_actions = {
	on_startup = {
		effect = {
           159= {
               add_province_modifier = {
                   static_modifiers = {terrain_milan}
                   province = { id =3780}
               }
           }
       }
   }
}

on_actions = {
	on_startup = {
		effect = {
           774= {
               add_province_modifier = {
                   static_modifiers = {terrain_modena}
                   province = { id =9752}
               }
           }
       }
   }
}

on_actions = {
	on_startup = {
		effect = {
           73= {
               add_province_modifier = {
                   static_modifiers = {terrain_mukachevo}
                   province = { id =9563}
               }
           }
       }
   }
}

on_actions = {
	on_startup = {
		effect = {
           900= {
               add_province_modifier = {
                   static_modifiers = {terrain_nalchik}
                   province = { id =9649}
               }
           }
       }
   }
}

on_actions = {
	on_startup = {
		effect = {
           117= {
               add_province_modifier = {
                   static_modifiers = {terrain_naples}
                   province = { id =819}
               }
           }
       }
   }
}

on_actions = {
	on_startup = {
		effect = {
           769= {
               add_province_modifier = {
                   static_modifiers = {terrain_narva}
                   province = { id =4640}
               }
           }
       }
   }
}

on_actions = {
	on_startup = {
		effect = {
           899= {
               add_province_modifier = {
                   static_modifiers = {terrain_nazran}
                   province = { id =670}
               }
           }
       }
   }
}

on_actions = {
	on_startup = {
		effect = {
           777= {
               add_province_modifier = {
                   static_modifiers = {terrain_novara}
                   province = { id =776}
               }
           }
       }
   }
}

on_actions = {
	on_startup = {
		effect = {
           765= {
               add_province_modifier = {
                   static_modifiers = {terrain_novorossiysk}
                   province = { id =719}
               }
           }
       }
   }
}

on_actions = {
	on_startup = {
		effect = {
           192= {
               add_province_modifier = {
                   static_modifiers = {terrain_odessa}
                   province = { id =11670}
               }
           }
       }
   }
}

on_actions = {
	on_startup = {
		effect = {
           203= {
               add_province_modifier = {
                   static_modifiers = {terrain_oleksandria}
                   province = { id =3468}
               }
           }
       }
   }
}

on_actions = {
	on_startup = {
		effect = {
           115= {
               add_province_modifier = {
                   static_modifiers = {terrain_palermo}
                   province = { id =10074}
               }
           }
       }
   }
}

on_actions = {
	on_startup = {
		effect = {
           774= {
               add_province_modifier = {
                   static_modifiers = {terrain_parma}
                   province = { id =6790}
               }
           }
       }
   }
}

on_actions = {
	on_startup = {
		effect = {
           117= {
               add_province_modifier = {
                   static_modifiers = {terrain_pescara}
                   province = { id =6831}
               }
           }
       }
   }
}

on_actions = {
	on_startup = {
		effect = {
           259= {
               add_province_modifier = {
                   static_modifiers = {terrain_poltava}
                   province = { id =511}
               }
           }
       }
   }
}

on_actions = {
	on_startup = {
		effect = {
           235= {
               add_province_modifier = {
                   static_modifiers = {terrain_pyatigorsk}
                   province = { id =11633}
               }
           }
       }
   }
}

on_actions = {
	on_startup = {
		effect = {
           161= {
               add_province_modifier = {
                   static_modifiers = {terrain_ravenna}
                   province = { id =782}
               }
           }
       }
   }
}

on_actions = {
	on_startup = {
		effect = {
           771= {
               add_province_modifier = {
                   static_modifiers = {terrain_reggio_calabria}
                   province = { id =9990}
               }
           }
       }
   }
}

on_actions = {
	on_startup = {
		effect = {
           12= {
               add_province_modifier = {
                   static_modifiers = {terrain_riga}
                   province = { id =9340}
               }
           }
       }
   }
}

on_actions = {
	on_startup = {
		effect = {
           157= {
               add_province_modifier = {
                   static_modifiers = {terrain_rimini}
                   province = { id =9924}
               }
           }
       }
   }
}

on_actions = {
	on_startup = {
		effect = {
           93= {
               add_province_modifier = {
                   static_modifiers = {terrain_rivne}
                   province = { id =572}
               }
           }
       }
   }
}

on_actions = {
	on_startup = {
		effect = {
           2= {
               add_province_modifier = {
                   static_modifiers = {terrain_rome}
                   province = { id =9904}
               }
           }
       }
   }
}

on_actions = {
	on_startup = {
		effect = {
           218= {
               add_province_modifier = {
                   static_modifiers = {terrain_rostov_on_don}
                   province = { id =9417}
               }
           }
       }
   }
}

on_actions = {
	on_startup = {
		effect = {
           117= {
               add_province_modifier = {
                   static_modifiers = {terrain_salerno}
                   province = { id =955}
               }
           }
       }
   }
}

on_actions = {
	on_startup = {
		effect = {
           157= {
               add_province_modifier = {
                   static_modifiers = {terrain_sanbenedetto}
                   province = { id =9838}
               }
           }
       }
   }
}

on_actions = {
	on_startup = {
		effect = {
           892= {
               add_province_modifier = {
                   static_modifiers = {terrain_sanmarino}
                   province = { id =13247}
               }
           }
       }
   }
}

on_actions = {
	on_startup = {
		effect = {
           114= {
               add_province_modifier = {
                   static_modifiers = {terrain_sassari}
                   province = { id =9772}
               }
           }
       }
   }
}

on_actions = {
	on_startup = {
		effect = {
           137= {
               add_province_modifier = {
                   static_modifiers = {terrain_sevastopol}
                   province = { id =3686}
               }
           }
       }
   }
}

on_actions = {
	on_startup = {
		effect = {
           770= {
               add_province_modifier = {
                   static_modifiers = {terrain_siena}
                   province = { id =9750}
               }
           }
       }
   }
}

on_actions = {
	on_startup = {
		effect = {
           137= {
               add_province_modifier = {
                   static_modifiers = {terrain_simferopol}
                   province = { id =6724}
               }
           }
       }
   }
}

on_actions = {
	on_startup = {
		effect = {
           765= {
               add_province_modifier = {
                   static_modifiers = {terrain_sochi}
                   province = { id =9663}
               }
           }
       }
   }
}

on_actions = {
	on_startup = {
		effect = {
           235= {
               add_province_modifier = {
                   static_modifiers = {terrain_stavropol}
                   province = { id =11696}
               }
           }
       }
   }
}

on_actions = {
	on_startup = {
		effect = {
           115= {
               add_province_modifier = {
                   static_modifiers = {terrain_syracuse}
                   province = { id =4014}
               }
           }
       }
   }
}

on_actions = {
	on_startup = {
		effect = {
           218= {
               add_province_modifier = {
                   static_modifiers = {terrain_taganrog}
                   province = { id =6445}
               }
           }
       }
   }
}

on_actions = {
	on_startup = {
		effect = {
           13= {
               add_province_modifier = {
                   static_modifiers = {terrain_tallin}
                   province = { id =3152}
               }
           }
       }
   }
}

on_actions = {
	on_startup = {
		effect = {
           156= {
               add_province_modifier = {
                   static_modifiers = {terrain_taranto}
                   province = { id =11837}
               }
           }
       }
   }
}

on_actions = {
	on_startup = {
		effect = {
           191= {
               add_province_modifier = {
                   static_modifiers = {terrain_tartu}
                   province = { id =9221}
               }
           }
       }
   }
}

on_actions = {
	on_startup = {
		effect = {
           199= {
               add_province_modifier = {
                   static_modifiers = {terrain_ternopil}
                   province = { id =438}
               }
           }
       }
   }
}

on_actions = {
	on_startup = {
		effect = {
           783= {
               add_province_modifier = {
                   static_modifiers = {terrain_trent}
                   province = { id =11598}
               }
           }
       }
   }
}

on_actions = {
	on_startup = {
		effect = {
           160= {
               add_province_modifier = {
                   static_modifiers = {terrain_trieste}
                   province = { id =13236}
               }
           }
       }
   }
}

on_actions = {
	on_startup = {
		effect = {
           158= {
               add_province_modifier = {
                   static_modifiers = {terrain_turin}
                   province = { id =6780}
               }
           }
       }
   }
}

on_actions = {
	on_startup = {
		effect = {
           203= {
               add_province_modifier = {
                   static_modifiers = {terrain_uman}
                   province = { id =9451}
               }
           }
       }
   }
}

on_actions = {
	on_startup = {
		effect = {
           73= {
               add_province_modifier = {
                   static_modifiers = {terrain_uzhhorod}
                   province = { id =11691}
               }
           }
       }
   }
}

on_actions = {
	on_startup = {
		effect = {
           225= {
               add_province_modifier = {
                   static_modifiers = {terrain_sumy}
                   province = { id =3520}
               }
           }
       }
   }
}

on_actions = {
	on_startup = {
		effect = {
           891= {
               add_province_modifier = {
                   static_modifiers = {terrain_vatican}
                   province = { id =13244}
               }
           }
       }
   }
}

on_actions = {
	on_startup = {
		effect = {
           160= {
               add_province_modifier = {
                   static_modifiers = {terrain_venice}
                   province = { id =11584}
               }
           }
       }
   }
}

on_actions = {
	on_startup = {
		effect = {
           783= {
               add_province_modifier = {
                   static_modifiers = {terrain_verona}
                   province = { id =9598}
               }
           }
       }
   }
}

on_actions = {
	on_startup = {
		effect = {
           198= {
               add_province_modifier = {
                   static_modifiers = {terrain_vinnitsa}
                   province = { id =9481}
               }
           }
       }
   }
}

on_actions = {
	on_startup = {
		effect = {
           770= {
               add_province_modifier = {
                   static_modifiers = {terrain_viterbo}
                   province = { id =11751}
               }
           }
       }
   }
}

on_actions = {
	on_startup = {
		effect = {
           898= {
               add_province_modifier = {
                   static_modifiers = {terrain_vladikavkaz}
                   province = { id =9628}
               }
           }
       }
   }
}

on_actions = {
	on_startup = {
		effect = {
           217= {
               add_province_modifier = {
                   static_modifiers = {terrain_volgograd}
                   province = { id =3529}
               }
           }
       }
   }
}

on_actions = {
	on_startup = {
		effect = {
           260= {
               add_province_modifier = {
                   static_modifiers = {terrain_voronezh}
                   province = { id =413}
               }
           }
       }
   }
}

on_actions = {
	on_startup = {
		effect = {
           137= {
               add_province_modifier = {
                   static_modifiers = {terrain_yalta}
                   province = { id =6704}
               }
           }
       }
   }
}

on_actions = {
	on_startup = {
		effect = {
           201= {
               add_province_modifier = {
                   static_modifiers = {terrain_zhitomir}
                   province = { id =6593}
               }
           }
       }
   }
}

on_actions = {
	on_startup = {
		effect = {
           238= {
               add_province_modifier = {
                   static_modifiers = {terrain_volgodonsk}
                   province = { id =3464}
               }
           }
       }
   }
}

on_actions = {
	on_startup = {
		effect = {
           136= {
               add_province_modifier = {
                   static_modifiers = {terrain_Aberdeen}
                   province = { id =11136}
               }
           }
       }
   }
}

on_actions = {
	on_startup = {
		effect = {
           1027= {
               add_province_modifier = {
                   static_modifiers = {terrain_Bath}
                   province = { id =6351}
               }
           }
       }
   }
}

on_actions = {
	on_startup = {
		effect = {
           119= {
               add_province_modifier = {
                   static_modifiers = {terrain_Belfast}
                   province = { id =3379}
               }
           }
       }
   }
}

on_actions = {
	on_startup = {
		effect = {
           128= {
               add_province_modifier = {
                   static_modifiers = {terrain_Birmingham}
                   province = { id =9297}
               }
           }
       }
   }
}

on_actions = {
	on_startup = {
		effect = {
           1027= {
               add_province_modifier = {
                   static_modifiers = {terrain_Bournemouth}
                   province = { id =6489}
               }
           }
       }
   }
}

on_actions = {
	on_startup = {
		effect = {
           127= {
               add_province_modifier = {
                   static_modifiers = {terrain_Brighton}
                   province = { id =11446}
               }
           }
       }
   }
}

on_actions = {
	on_startup = {
		effect = {
           338= {
               add_province_modifier = {
                   static_modifiers = {terrain_Bristol}
                   province = { id =3369}
               }
           }
       }
   }
}

on_actions = {
	on_startup = {
		effect = {
           125= {
               add_province_modifier = {
                   static_modifiers = {terrain_Cambridge}
                   province = { id =11221}
               }
           }
       }
   }
}

on_actions = {
	on_startup = {
		effect = {
           127= {
               add_province_modifier = {
                   static_modifiers = {terrain_Canterbury}
                   province = { id =13070}
               }
           }
       }
   }
}

on_actions = {
	on_startup = {
		effect = {
           122= {
               add_province_modifier = {
                   static_modifiers = {terrain_Cardiff}
                   province = { id =377}
               }
           }
       }
   }
}

on_actions = {
	on_startup = {
		effect = {
           125= {
               add_province_modifier = {
                   static_modifiers = {terrain_Colchester}
                   province = { id =11374}
               }
           }
       }
   }
}

on_actions = {
	on_startup = {
		effect = {
           135= {
               add_province_modifier = {
                   static_modifiers = {terrain_Cork}
                   province = { id =7394}
               }
           }
       }
   }
}

on_actions = {
	on_startup = {
		effect = {
           127= {
               add_province_modifier = {
                   static_modifiers = {terrain_Dover}
                   province = { id =3501}
               }
           }
       }
   }
}

on_actions = {
	on_startup = {
		effect = {
           113= {
               add_province_modifier = {
                   static_modifiers = {terrain_Dublin}
                   province = { id =11293}
               }
           }
       }
   }
}

on_actions = {
	on_startup = {
		effect = {
           121= {
               add_province_modifier = {
                   static_modifiers = {terrain_Edinburgh}
                   province = { id =9392}
               }
           }
       }
   }
}

on_actions = {
	on_startup = {
		effect = {
           1027= {
               add_province_modifier = {
                   static_modifiers = {terrain_Exeter}
                   province = { id =3463}
               }
           }
       }
   }
}

on_actions = {
	on_startup = {
		effect = {
           134= {
               add_province_modifier = {
                   static_modifiers = {terrain_Galway}
                   province = { id =9303}
               }
           }
       }
   }
}

on_actions = {
	on_startup = {
		effect = {
           133= {
               add_province_modifier = {
                   static_modifiers = {terrain_Glasgow}
                   province = { id =3272}
               }
           }
       }
   }
}

on_actions = {
	on_startup = {
		effect = {
           130= {
               add_province_modifier = {
                   static_modifiers = {terrain_Hull}
                   province = { id =11297}
               }
           }
       }
   }
}

on_actions = {
	on_startup = {
		effect = {
           125= {
               add_province_modifier = {
                   static_modifiers = {terrain_Ipswich}
                   province = { id =221}
               }
           }
       }
   }
}

on_actions = {
	on_startup = {
		effect = {
           775= {
               add_province_modifier = {
                   static_modifiers = {terrain_Leeds}
                   province = { id =9379}
               }
           }
       }
   }
}

on_actions = {
	on_startup = {
		effect = {
           129= {
               add_province_modifier = {
                   static_modifiers = {terrain_Leicester}
                   province = { id =11279}
               }
           }
       }
   }
}

on_actions = {
	on_startup = {
		effect = {
           776= {
               add_province_modifier = {
                   static_modifiers = {terrain_Lerwick}
                   province = { id =6196}
               }
           }
       }
   }
}

on_actions = {
	on_startup = {
		effect = {
           135= {
               add_province_modifier = {
                   static_modifiers = {terrain_Limerick}
                   province = { id =6313}
               }
           }
       }
   }
}

on_actions = {
	on_startup = {
		effect = {
           132= {
               add_province_modifier = {
                   static_modifiers = {terrain_Liverpool}
                   province = { id =6384}
               }
           }
       }
   }
}

on_actions = {
	on_startup = {
		effect = {
           126= {
               add_province_modifier = {
                   static_modifiers = {terrain_London}
                   province = { id =6103}
               }
           }
       }
   }
}

on_actions = {
	on_startup = {
		effect = {
           119= {
               add_province_modifier = {
                   static_modifiers = {terrain_Londonderry}
                   province = { id =385}
               }
           }
       }
   }
}

on_actions = {
	on_startup = {
		effect = {
           775= {
               add_province_modifier = {
                   static_modifiers = {terrain_Manchester}
                   province = { id =6318}
               }
           }
       }
   }
}

on_actions = {
	on_startup = {
		effect = {
           131= {
               add_province_modifier = {
                   static_modifiers = {terrain_Middlesbrough}
                   province = { id =11270}
               }
           }
       }
   }
}

on_actions = {
	on_startup = {
		effect = {
           131= {
               add_province_modifier = {
                   static_modifiers = {terrain_Newcastle}
                   province = { id =351}
               }
           }
       }
   }
}

on_actions = {
	on_startup = {
		effect = {
           125= {
               add_province_modifier = {
                   static_modifiers = {terrain_Norwich}
                   province = { id =322}
               }
           }
       }
   }
}

on_actions = {
	on_startup = {
		effect = {
           775= {
               add_province_modifier = {
                   static_modifiers = {terrain_Nottingham}
                   province = { id =6237}
               }
           }
       }
   }
}

on_actions = {
	on_startup = {
		effect = {
           125= {
               add_province_modifier = {
                   static_modifiers = {terrain_Oxford}
                   province = { id =9239}
               }
           }
       }
   }
}

on_actions = {
	on_startup = {
		effect = {
           129= {
               add_province_modifier = {
                   static_modifiers = {terrain_Peterborough}
                   province = { id =296}
               }
           }
       }
   }
}

on_actions = {
	on_startup = {
		effect = {
           123= {
               add_province_modifier = {
                   static_modifiers = {terrain_Plymouth}
                   province = { id =540}
               }
           }
       }
   }
}

on_actions = {
	on_startup = {
		effect = {
           121= {
               add_province_modifier = {
                   static_modifiers = {terrain_Rosyth}
                   province = { id =6300}
               }
           }
       }
   }
}

on_actions = {
	on_startup = {
		effect = {
           120= {
               add_province_modifier = {
                   static_modifiers = {terrain_Scapaflow}
                   province = { id =11064}
               }
           }
       }
   }
}

on_actions = {
	on_startup = {
		effect = {
           775= {
               add_province_modifier = {
                   static_modifiers = {terrain_Sheffield}
                   province = { id =9315}
               }
           }
       }
   }
}

on_actions = {
	on_startup = {
		effect = {
           1027= {
               add_province_modifier = {
                   static_modifiers = {terrain_Southapmton}
                   province = { id =9458}
               }
           }
       }
   }
}

on_actions = {
	on_startup = {
		effect = {
           126= {
               add_province_modifier = {
                   static_modifiers = {terrain_SouthLondon}
                   province = { id =11333}
               }
           }
       }
   }
}

on_actions = {
	on_startup = {
		effect = {
           1026= {
               add_province_modifier = {
                   static_modifiers = {terrain_Sthealer}
                   province = { id =13250}
               }
           }
       }
   }
}

on_actions = {
	on_startup = {
		effect = {
           122= {
               add_province_modifier = {
                   static_modifiers = {terrain_Swansea}
                   province = { id =407}
               }
           }
       }
   }
}

on_actions = {
	on_startup = {
		effect = {
           338= {
               add_province_modifier = {
                   static_modifiers = {terrain_Swindon}
                   province = { id =11471}
               }
           }
       }
   }
}

on_actions = {
	on_startup = {
		effect = {
           745= {
               add_province_modifier = {
                   static_modifiers = {terrain_Anshan}
                   province = { id =892}
               }
           }
       }
   }
}

on_actions = {
	on_startup = {
		effect = {
           614= {
               add_province_modifier = {
                   static_modifiers = {terrain_Baoding}
                   province = { id =1134}
               }
           }
       }
   }
}

on_actions = {
	on_startup = {
		effect = {
           621= {
               add_province_modifier = {
                   static_modifiers = {terrain_Baotou}
                   province = { id =2087}
               }
           }
       }
   }
}

on_actions = {
	on_startup = {
		effect = {
           608= {
               add_province_modifier = {
                   static_modifiers = {terrain_Beijing}
                   province = { id =9843}
               }
           }
       }
   }
}

on_actions = {
	on_startup = {
		effect = {
           614= {
               add_province_modifier = {
                   static_modifiers = {terrain_Cangzhou}
                   province = { id =11996}
               }
           }
       }
   }
}

on_actions = {
	on_startup = {
		effect = {
           189= {
               add_province_modifier = {
                   static_modifiers = {terrain_Changchun}
                   province = { id =4572}
               }
           }
       }
   }
}

on_actions = {
	on_startup = {
		effect = {
           745= {
               add_province_modifier = {
                   static_modifiers = {terrain_Dalian}
                   province = { id =1150}
               }
           }
       }
   }
}

on_actions = {
	on_startup = {
		effect = {
           745= {
               add_province_modifier = {
                   static_modifiers = {terrain_Dangdon}
                   province = { id =6981}
               }
           }
       }
   }
}

on_actions = {
	on_startup = {
		effect = {
           714= {
               add_province_modifier = {
                   static_modifiers = {terrain_Daqing}
                   province = { id =1645}
               }
           }
       }
   }
}

on_actions = {
	on_startup = {
		effect = {
           611= {
               add_province_modifier = {
                   static_modifiers = {terrain_Datong}
                   province = { id =12403}
               }
           }
       }
   }
}

on_actions = {
	on_startup = {
		effect = {
           716= {
               add_province_modifier = {
                   static_modifiers = {terrain_Fushun}
                   province = { id =9885}
               }
           }
       }
   }
}

on_actions = {
	on_startup = {
		effect = {
           610= {
               add_province_modifier = {
                   static_modifiers = {terrain_Fuxin}
                   province = { id =9788}
               }
           }
       }
   }
}

on_actions = {
	on_startup = {
		effect = {
           615= {
               add_province_modifier = {
                   static_modifiers = {terrain_Handan}
                   province = { id =4058}
               }
           }
       }
   }
}

on_actions = {
	on_startup = {
		effect = {
           328= {
               add_province_modifier = {
                   static_modifiers = {terrain_Harbin}
                   province = { id =10433}
               }
           }
       }
   }
}

on_actions = {
	on_startup = {
		effect = {
           621= {
               add_province_modifier = {
                   static_modifiers = {terrain_Hohhot}
                   province = { id =10424}
               }
           }
       }
   }
}

on_actions = {
	on_startup = {
		effect = {
           610= {
               add_province_modifier = {
                   static_modifiers = {terrain_Huludao}
                   province = { id =6837}
               }
           }
       }
   }
}

on_actions = {
	on_startup = {
		effect = {
           717= {
               add_province_modifier = {
                   static_modifiers = {terrain_Jiamusi}
                   province = { id =10463}
               }
           }
       }
   }
}

on_actions = {
	on_startup = {
		effect = {
           189= {
               add_province_modifier = {
                   static_modifiers = {terrain_Jilincity}
                   province = { id =7663}
               }
           }
       }
   }
}

on_actions = {
	on_startup = {
		effect = {
           717= {
               add_province_modifier = {
                   static_modifiers = {terrain_Jixi}
                   province = { id =3815}
               }
           }
       }
   }
}

on_actions = {
	on_startup = {
		effect = {
           328= {
               add_province_modifier = {
                   static_modifiers = {terrain_Mudanjiang}
                   province = { id =10376}
               }
           }
       }
   }
}

on_actions = {
	on_startup = {
		effect = {
           716= {
               add_province_modifier = {
                   static_modifiers = {terrain_Panjin}
                   province = { id =11764}
               }
           }
       }
   }
}

on_actions = {
	on_startup = {
		effect = {
           614= {
               add_province_modifier = {
                   static_modifiers = {terrain_Puyang}
                   province = { id =11933}
               }
           }
       }
   }
}

on_actions = {
	on_startup = {
		effect = {
           610= {
               add_province_modifier = {
                   static_modifiers = {terrain_Qinhuangdao}
                   province = { id =3900}
               }
           }
       }
   }
}

on_actions = {
	on_startup = {
		effect = {
           714= {
               add_province_modifier = {
                   static_modifiers = {terrain_Qiqihar}
                   province = { id =1588}
               }
           }
       }
   }
}

on_actions = {
	on_startup = {
		effect = {
           716= {
               add_province_modifier = {
                   static_modifiers = {terrain_Shenyang}
                   province = { id =11771}
               }
           }
       }
   }
}

on_actions = {
	on_startup = {
		effect = {
           615= {
               add_province_modifier = {
                   static_modifiers = {terrain_Shijiazhuang}
                   province = { id =4093}
               }
           }
       }
   }
}

on_actions = {
	on_startup = {
		effect = {
           717= {
               add_province_modifier = {
                   static_modifiers = {terrain_Shuangyashan}
                   province = { id =9623}
               }
           }
       }
   }
}

on_actions = {
	on_startup = {
		effect = {
           189= {
               add_province_modifier = {
                   static_modifiers = {terrain_Siping}
                   province = { id =4642}
               }
           }
       }
   }
}

on_actions = {
	on_startup = {
		effect = {
           615= {
               add_province_modifier = {
                   static_modifiers = {terrain_Taiyuan}
                   province = { id =1519}
               }
           }
       }
   }
}

on_actions = {
	on_startup = {
		effect = {
           608= {
               add_province_modifier = {
                   static_modifiers = {terrain_Tangshan}
                   province = { id =1052}
               }
           }
       }
   }
}

on_actions = {
	on_startup = {
		effect = {
           608= {
               add_province_modifier = {
                   static_modifiers = {terrain_Tianjin}
                   province = { id =10068}
               }
           }
       }
   }
}

on_actions = {
	on_startup = {
		effect = {
           715= {
               add_province_modifier = {
                   static_modifiers = {terrain_Tuquan}
                   province = { id =1558}
               }
           }
       }
   }
}

on_actions = {
	on_startup = {
		effect = {
           612= {
               add_province_modifier = {
                   static_modifiers = {terrain_Xilinhot}
                   province = { id =1608}
               }
           }
       }
   }
}

on_actions = {
	on_startup = {
		effect = {
           611= {
               add_province_modifier = {
                   static_modifiers = {terrain_Zhangjiakou}
                   province = { id =1489}
               }
           }
       }
   }
}

on_actions = {
	on_startup = {
		effect = {
           261= {
               add_province_modifier = {
                   static_modifiers = {terrain_Akron}
                   province = { id =6874}
               }
           }
       }
   }
}

on_actions = {
	on_startup = {
		effect = {
           916= {
               add_province_modifier = {
                   static_modifiers = {terrain_Albany}
                   province = { id =3806}
               }
           }
       }
   }
}

on_actions = {
	on_startup = {
		effect = {
           930= {
               add_province_modifier = {
                   static_modifiers = {terrain_Alexandria}
                   province = { id =873}
               }
           }
       }
   }
}

on_actions = {
	on_startup = {
		effect = {
           919= {
               add_province_modifier = {
                   static_modifiers = {terrain_Allentown}
                   province = { id =11799}
               }
           }
       }
   }
}

on_actions = {
	on_startup = {
		effect = {
           359= {
               add_province_modifier = {
                   static_modifiers = {terrain_Atlanticcity}
                   province = { id =9864}
               }
           }
       }
   }
}

on_actions = {
	on_startup = {
		effect = {
           361= {
               add_province_modifier = {
                   static_modifiers = {terrain_Baltimore}
                   province = { id =6984}
               }
           }
       }
   }
}

on_actions = {
	on_startup = {
		effect = {
           911= {
               add_province_modifier = {
                   static_modifiers = {terrain_Bangor}
                   province = { id =12459}
               }
           }
       }
   }
}

on_actions = {
	on_startup = {
		effect = {
           998= {
               add_province_modifier = {
                   static_modifiers = {terrain_Blacksburg}
                   province = { id =1506}
               }
           }
       }
   }
}

on_actions = {
	on_startup = {
		effect = {
           357= {
               add_province_modifier = {
                   static_modifiers = {terrain_Boston}
                   province = { id =6732}
               }
           }
       }
   }
}

on_actions = {
	on_startup = {
		effect = {
           915= {
               add_province_modifier = {
                   static_modifiers = {terrain_Bridgeport}
                   province = { id =9847}
               }
           }
       }
   }
}

on_actions = {
	on_startup = {
		effect = {
           917= {
               add_province_modifier = {
                   static_modifiers = {terrain_Buffalo}
                   province = { id =11654}
               }
           }
       }
   }
}

on_actions = {
	on_startup = {
		effect = {
           928= {
               add_province_modifier = {
                   static_modifiers = {terrain_Charleston}
                   province = { id =7588}
               }
           }
       }
   }
}

on_actions = {
	on_startup = {
		effect = {
           933= {
               add_province_modifier = {
                   static_modifiers = {terrain_Cincinnati}
                   province = { id =4601}
               }
           }
       }
   }
}

on_actions = {
	on_startup = {
		effect = {
           261= {
               add_province_modifier = {
                   static_modifiers = {terrain_Cleveland}
                   province = { id =6890}
               }
           }
       }
   }
}

on_actions = {
	on_startup = {
		effect = {
           932= {
               add_province_modifier = {
                   static_modifiers = {terrain_Columbus}
                   province = { id =6855}
               }
           }
       }
   }
}

on_actions = {
	on_startup = {
		effect = {
           933= {
               add_province_modifier = {
                   static_modifiers = {terrain_Dayton}
                   province = { id =831}
               }
           }
       }
   }
}

on_actions = {
	on_startup = {
		effect = {
           921= {
               add_province_modifier = {
                   static_modifiers = {terrain_Erie}
                   province = { id =3687}
               }
           }
       }
   }
}

on_actions = {
	on_startup = {
		effect = {
           464= {
               add_province_modifier = {
                   static_modifiers = {terrain_Halifax}
                   province = { id =7361}
               }
           }
       }
   }
}

on_actions = {
	on_startup = {
		effect = {
           930= {
               add_province_modifier = {
                   static_modifiers = {terrain_Hampton}
                   province = { id =865}
               }
           }
       }
   }
}

on_actions = {
	on_startup = {
		effect = {
           360= {
               add_province_modifier = {
                   static_modifiers = {terrain_Harrisburg}
                   province = { id =3847}
               }
           }
       }
   }
}

on_actions = {
	on_startup = {
		effect = {
           915= {
               add_province_modifier = {
                   static_modifiers = {terrain_Hartford}
                   province = { id =9850}
               }
           }
       }
   }
}

on_actions = {
	on_startup = {
		effect = {
           362= {
               add_province_modifier = {
                   static_modifiers = {terrain_Lynchburg}
                   province = { id =11841}
               }
           }
       }
   }
}

on_actions = {
	on_startup = {
		effect = {
           912= {
               add_province_modifier = {
                   static_modifiers = {terrain_Manchester2}
                   province = { id =3712}
               }
           }
       }
   }
}

on_actions = {
	on_startup = {
		effect = {
           465= {
               add_province_modifier = {
                   static_modifiers = {terrain_Moncton}
                   province = { id =1424}
               }
           }
       }
   }
}

on_actions = {
	on_startup = {
		effect = {
           913= {
               add_province_modifier = {
                   static_modifiers = {terrain_Montpelier}
                   province = { id =4445}
               }
           }
       }
   }
}

on_actions = {
	on_startup = {
		effect = {
           468= {
               add_province_modifier = {
                   static_modifiers = {terrain_Montreal}
                   province = { id =4345}
               }
           }
       }
   }
}

on_actions = {
	on_startup = {
		effect = {
           359= {
               add_province_modifier = {
                   static_modifiers = {terrain_Newark}
                   province = { id =6882}
               }
           }
       }
   }
}

on_actions = {
	on_startup = {
		effect = {
           915= {
               add_province_modifier = {
                   static_modifiers = {terrain_Newhaven}
                   province = { id =6909}
               }
           }
       }
   }
}

on_actions = {
	on_startup = {
		effect = {
           358= {
               add_province_modifier = {
                   static_modifiers = {terrain_NewYork}
                   province = { id =3878}
               }
           }
       }
   }
}

on_actions = {
	on_startup = {
		effect = {
           362= {
               add_province_modifier = {
                   static_modifiers = {terrain_Norfolk}
                   province = { id =788}
               }
           }
       }
   }
}

on_actions = {
	on_startup = {
		effect = {
           101= {
               add_province_modifier = {
                   static_modifiers = {terrain_Nuuk}
                   province = { id =12512}
               }
           }
       }
   }
}

on_actions = {
	on_startup = {
		effect = {
           919= {
               add_province_modifier = {
                   static_modifiers = {terrain_Philadelphia}
                   province = { id =6845}
               }
           }
       }
   }
}

on_actions = {
	on_startup = {
		effect = {
           921= {
               add_province_modifier = {
                   static_modifiers = {terrain_Pittsburgh}
                   province = { id =11800}
               }
           }
       }
   }
}

on_actions = {
	on_startup = {
		effect = {
           911= {
               add_province_modifier = {
                   static_modifiers = {terrain_Portland}
                   province = { id =3732}
               }
           }
       }
   }
}

on_actions = {
	on_startup = {
		effect = {
           914= {
               add_province_modifier = {
                   static_modifiers = {terrain_Providence}
                   province = { id =11830}
               }
           }
       }
   }
}

on_actions = {
	on_startup = {
		effect = {
           468= {
               add_province_modifier = {
                   static_modifiers = {terrain_Quebeccity}
                   province = { id =12149}
               }
           }
       }
   }
}

on_actions = {
	on_startup = {
		effect = {
           100= {
               add_province_modifier = {
                   static_modifiers = {terrain_Reykjavik}
                   province = { id =12674}
               }
           }
       }
   }
}

on_actions = {
	on_startup = {
		effect = {
           930= {
               add_province_modifier = {
                   static_modifiers = {terrain_Richmond}
                   province = { id =3823}
               }
           }
       }
   }
}

on_actions = {
	on_startup = {
		effect = {
           930= {
               add_province_modifier = {
                   static_modifiers = {terrain_Roanoke}
                   province = { id =10343}
               }
           }
       }
   }
}

on_actions = {
	on_startup = {
		effect = {
           917= {
               add_province_modifier = {
                   static_modifiers = {terrain_Rochester}
                   province = { id =3733}
               }
           }
       }
   }
}

on_actions = {
	on_startup = {
		effect = {
           784= {
               add_province_modifier = {
                   static_modifiers = {terrain_Saguenay}
                   province = { id =12223}
               }
           }
       }
   }
}

on_actions = {
	on_startup = {
		effect = {
           786= {
               add_province_modifier = {
                   static_modifiers = {terrain_Sherbrooke}
                   province = { id =10230}
               }
           }
       }
   }
}

on_actions = {
	on_startup = {
		effect = {
           331= {
               add_province_modifier = {
                   static_modifiers = {terrain_StJohns}
                   province = { id =12505}
               }
           }
       }
   }
}

on_actions = {
	on_startup = {
		effect = {
           730= {
               add_province_modifier = {
                   static_modifiers = {terrain_Stpierre}
                   province = { id =373}
               }
           }
       }
   }
}

on_actions = {
	on_startup = {
		effect = {
           917= {
               add_province_modifier = {
                   static_modifiers = {terrain_Syracuse}
                   province = { id =6795}
               }
           }
       }
   }
}

on_actions = {
	on_startup = {
		effect = {
           934= {
               add_province_modifier = {
                   static_modifiers = {terrain_Toledo}
                   province = { id =689}
               }
           }
       }
   }
}

on_actions = {
	on_startup = {
		effect = {
           361= {
               add_province_modifier = {
                   static_modifiers = {terrain_Washington}
                   province = { id =3957}
               }
           }
       }
   }
}

on_actions = {
	on_startup = {
		effect = {
           927= {
               add_province_modifier = {
                   static_modifiers = {terrain_Wilmington}
                   province = { id =9758}
               }
           }
       }
   }
}

on_actions = {
	on_startup = {
		effect = {
           357= {
               add_province_modifier = {
                   static_modifiers = {terrain_Worcester}
                   province = { id =3710}
               }
           }
       }
   }
}

on_actions = {
	on_startup = {
		effect = {
           886= {
               add_province_modifier = {
                   static_modifiers = {terrain_ramallah}
                   province = { id =13212}
               }
           }
       }
   }
}

on_actions = {
	on_startup = {
		effect = {
           200= {
               add_province_modifier = {
                   static_modifiers = {terrain_zapor}
                   province = { id =11405}
               }
           }
       }
   }
}

on_actions = {
	on_startup = {
		effect = {
           197= {
               add_province_modifier = {
                   static_modifiers = {terrain_mykolaiv}
                   province = { id =11683}
               }
           }
       }
   }
}

on_actions = {
	on_startup = {
		effect = {
           240= {
               add_province_modifier = {
                   static_modifiers = {terrain_belgorodrus}
                   province = { id =9449}
               }
           }
       }
   }
}

on_actions = {
	on_startup = {
		effect = {
           794= {
               add_province_modifier = {
                   static_modifiers = {terrain_izmail}
                   province = { id =3701}
               }
           }
       }
   }
}

on_actions = {
	on_startup = {
		effect = {
           117= {
               add_province_modifier = {
                   static_modifiers = {terrain_foggia}
                   province = { id =883}
               }
           }
       }
   }
}

on_actions = {
	on_startup = {
		effect = {
           78= {
               add_province_modifier = {
                   static_modifiers = {terrain_Balti}
                   province = { id =6600}
               }
           }
       }
   }
}

on_actions = {
	on_startup = {
		effect = {
           94= {
               add_province_modifier = {
                   static_modifiers = {terrain_baranovichi}
                   province = { id =9304}
               }
           }
       }
   }
}

on_actions = {
	on_startup = {
		effect = {
           204= {
               add_province_modifier = {
                   static_modifiers = {terrain_bobruysk}
                   province = { id =3350}
               }
           }
       }
   }
}

on_actions = {
	on_startup = {
		effect = {
           206= {
               add_province_modifier = {
                   static_modifiers = {terrain_Borislaw}
                   province = { id =294}
               }
           }
       }
   }
}

on_actions = {
	on_startup = {
		effect = {
           94= {
               add_province_modifier = {
                   static_modifiers = {terrain_brestlitovsky}
                   province = { id =3392}
               }
           }
       }
   }
}

on_actions = {
	on_startup = {
		effect = {
           78= {
               add_province_modifier = {
                   static_modifiers = {terrain_Chisinau}
                   province = { id =11686}
               }
           }
       }
   }
}

on_actions = {
	on_startup = {
		effect = {
           790= {
               add_province_modifier = {
                   static_modifiers = {terrain_Comrat}
                   province = { id =3704}
               }
           }
       }
   }
}

on_actions = {
	on_startup = {
		effect = {
           241= {
               add_province_modifier = {
                   static_modifiers = {terrain_Gomel}
                   province = { id =9288}
               }
           }
       }
   }
}

on_actions = {
	on_startup = {
		effect = {
           5= {
               add_province_modifier = {
                   static_modifiers = {terrain_Kaliningrad}
                   province = { id =6332}
               }
           }
       }
   }
}

on_actions = {
	on_startup = {
		effect = {
           11= {
               add_province_modifier = {
                   static_modifiers = {terrain_Kaliningrad2}
                   province = { id =9438}
               }
           }
       }
   }
}

on_actions = {
	on_startup = {
		effect = {
           11= {
               add_province_modifier = {
                   static_modifiers = {terrain_Kaunas}
                   province = { id =6296}
               }
           }
       }
   }
}

on_actions = {
	on_startup = {
		effect = {
           188= {
               add_province_modifier = {
                   static_modifiers = {terrain_Klaipeda}
                   province = { id =3288}
               }
           }
       }
   }
}

on_actions = {
	on_startup = {
		effect = {
           206= {
               add_province_modifier = {
                   static_modifiers = {terrain_Minsk}
                   province = { id =11370}
               }
           }
       }
   }
}

on_actions = {
	on_startup = {
		effect = {
           207= {
               add_province_modifier = {
                   static_modifiers = {terrain_Mohilev}
                   province = { id =9289}
               }
           }
       }
   }
}

on_actions = {
	on_startup = {
		effect = {
           95= {
               add_province_modifier = {
                   static_modifiers = {terrain_mozyr}
                   province = { id =6232}
               }
           }
       }
   }
}

on_actions = {
	on_startup = {
		effect = {
           207= {
               add_province_modifier = {
                   static_modifiers = {terrain_Orsha}
                   province = { id =3331}
               }
           }
       }
   }
}

on_actions = {
	on_startup = {
		effect = {
           94= {
               add_province_modifier = {
                   static_modifiers = {terrain_pinsk}
                   province = { id =560}
               }
           }
       }
   }
}

on_actions = {
	on_startup = {
		effect = {
           204= {
               add_province_modifier = {
                   static_modifiers = {terrain_salihorsk}
                   province = { id =3759}
               }
           }
       }
   }
}

on_actions = {
	on_startup = {
		effect = {
           188= {
               add_province_modifier = {
                   static_modifiers = {terrain_Siauliai}
                   province = { id =9483}
               }
           }
       }
   }
}

on_actions = {
	on_startup = {
		effect = {
           795= {
               add_province_modifier = {
                   static_modifiers = {terrain_Tiraspol}
                   province = { id =741}
               }
           }
       }
   }
}

on_actions = {
	on_startup = {
		effect = {
           96= {
               add_province_modifier = {
                   static_modifiers = {terrain_Vilnius}
                   province = { id =3320}
               }
           }
       }
   }
}

on_actions = {
	on_startup = {
		effect = {
           207= {
               add_province_modifier = {
                   static_modifiers = {terrain_Vitebsk}
                   province = { id =11241}
               }
           }
       }
   }
}

on_actions = {
	on_startup = {
		effect = {
           855= {
               add_province_modifier = {
                   static_modifiers = {terrain_Alfashir}
                   province = { id =10739}
               }
           }
       }
   }
}

on_actions = {
	on_startup = {
		effect = {
           855= {
               add_province_modifier = {
                   static_modifiers = {terrain_Dongola}
                   province = { id =12836}
               }
           }
       }
   }
}

on_actions = {
	on_startup = {
		effect = {
           855= {
               add_province_modifier = {
                   static_modifiers = {terrain_Elobeid}
                   province = { id =2016}
               }
           }
       }
   }
}

on_actions = {
	on_startup = {
		effect = {
           549= {
               add_province_modifier = {
                   static_modifiers = {terrain_Juba}
                   province = { id =7996}
               }
           }
       }
   }
}

on_actions = {
	on_startup = {
		effect = {
           551= {
               add_province_modifier = {
                   static_modifiers = {terrain_Kassala}
                   province = { id =2088}
               }
           }
       }
   }
}

on_actions = {
	on_startup = {
		effect = {
           810= {
               add_province_modifier = {
                   static_modifiers = {terrain_Khartoum}
                   province = { id =12806}
               }
           }
       }
   }
}

on_actions = {
	on_startup = {
		effect = {
           549= {
               add_province_modifier = {
                   static_modifiers = {terrain_Malakal}
                   province = { id =12744}
               }
           }
       }
   }
}

on_actions = {
	on_startup = {
		effect = {
           855= {
               add_province_modifier = {
                   static_modifiers = {terrain_Nyala}
                   province = { id =1960}
               }
           }
       }
   }
}

on_actions = {
	on_startup = {
		effect = {
           551= {
               add_province_modifier = {
                   static_modifiers = {terrain_Sudan}
                   province = { id =12725}
               }
           }
       }
   }
}

on_actions = {
	on_startup = {
		effect = {
           810= {
               add_province_modifier = {
                   static_modifiers = {terrain_Wadmadani}
                   province = { id =1914}
               }
           }
       }
   }
}
