
strategic_region={
	id=133
	name="STRATEGICREGION_133"
	provinces={
		2 8 12 39 57 62 70 71 79 85 93 95 97 104 110 117 121 126 149 150 152 164 172 181 187 194 207 208 212 214 223 226 231 232 236 246 248 252 256 257 261 269 270 274 275 280 283 287 288 297 300 301 302 306 313 314 315 320 324 328 330 333 335 340 343 344 346 350 352 354 356 357 366 367 368 371 376 378 380 382 384 387 396 397 398 401 413 415 437 457 471 473 510 534 558 580 2999 3035 3053 3072 3077 3085 3089 3101 3110 3116 3120 3140 3142 3143 3151 3163 3176 3190 3199 3202 3210 3215 3220 3221 3224 3226 3235 3236 3240 3245 3247 3250 3257 3259 3261 3263 3266 3268 3275 3278 3279 3285 3290 3291 3292 3297 3302 3303 3306 3308 3310 3313 3317 3318 3321 3322 3323 3327 3332 3333 3335 3339 3344 3345 3346 3347 3349 3352 3356 3358 3360 3362 3364 3370 3371 3376 3377 3383 3387 3389 3390 3391 3469 3492 3504 3527 3554 3566 3567 3580 6022 6035 6056 6086 6095 6101 6122 6131 6135 6139 6143 6149 6154 6167 6169 6174 6197 6203 6215 6225 6230 6231 6242 6243 6245 6247 6248 6252 6254 6262 6264 6269 6273 6279 6283 6284 6290 6291 6293 6295 6299 6303 6304 6305 6315 6316 6317 6324 6327 6329 6330 6333 6341 6343 6346 6348 6353 6355 6356 6358 6362 6365 6367 6369 6370 6374 6380 6382 6386 6387 6391 6392 6396 6398 6400 6409 6410 6411 6414 6428 6432 6477 6481 6494 6517 6543 6553 6577 6587 6591 6603 9033 9046 9060 9082 9097 9098 9107 9111 9120 9122 9144 9153 9159 9164 9177 9184 9188 9190 9197 9212 9234 9235 9242 9245 9253 9254 9256 9257 9258 9260 9261 9265 9266 9267 9272 9273 9276 9278 9282 9286 9287 9291 9298 9301 9302 9311 9312 9313 9318 9319 9324 9325 9328 9330 9331 9333 9339 9343 9344 9345 9348 9351 9353 9355 9356 9358 9360 9366 9367 9368 9376 9378 9380 9382 9384 9386 9389 9394 9395 9399 9407 9408 9409 9411 9422 9424 9448 9449 9489 9518 9529 9542 9552 9579 11032 11039 11048 11059 11068 11072 11080 11083 11084 11093 11097 11099 11109 11131 11134 11139 11154 11165 11166 11174 11186 11191 11202 11205 11214 11217 11224 11227 11229 11234 11235 11236 11239 11240 11242 11244 11248 11250 11252 11254 11258 11259 11262 11268 11269 11272 11275 11277 11282 11283 11284 11290 11294 11295 11296 11298 11300 11304 11309 11310 11314 11315 11323 11324 11325 11326 11330 11335 11336 11337 11338 11340 11344 11347 11349 11351 11353 11362 11363 11364 11368 11369 11375 11379 11381 11384 11392 11393 11394 11396 11412 11436 11439 11475 11500 11526 11540 13128 13129 
	}
	weather={
		period={
			between={ 0.0 30.0 }
			temperature={ -11.0 -6.0 }
			temperature_day_night={ 5.0 -15.0 }
			no_phenomenon=0.350
			rain_light=0.050
			rain_heavy=0.000
			snow=0.600
			blizzard=0.100
			mud=1.600
			sandstorm=0.000
			min_snow_level=0.000
		}
		period={
			between={ 0.1 27.1 }
			temperature={ -11.0 -6.0 }
			temperature_day_night={ 5.0 -15.0 }
			no_phenomenon=0.350
			rain_light=0.050
			rain_heavy=0.000
			snow=0.550
			blizzard=0.050
			mud=1.600
			sandstorm=0.000
			min_snow_level=0.000
		}
		period={
			between={ 0.2 30.2 }
			temperature={ -5.0 2.0 }
			temperature_day_night={ 10.0 -11.0 }
			no_phenomenon=0.400
			rain_light=0.100
			rain_heavy=0.000
			snow=0.400
			blizzard=0.100
			mud=1.600
			sandstorm=0.000
			min_snow_level=0.000
		}
		period={
			between={ 0.3 29.3 }
			temperature={ 2.0 11.0 }
			temperature_day_night={ 5.0 -10.0 }
			no_phenomenon=0.450
			rain_light=0.300
			rain_heavy=0.050
			snow=0.300
			blizzard=0.000
			mud=1.600
			sandstorm=0.000
			min_snow_level=0.000
		}
		period={
			between={ 0.4 30.4 }
			temperature={ 8.0 18.0 }
			temperature_day_night={ 8.0 -8.0 }
			no_phenomenon=0.450
			rain_light=0.300
			rain_heavy=0.150
			snow=0.100
			blizzard=0.000
			mud=1.600
			sandstorm=0.000
			min_snow_level=0.000
		}
		period={
			between={ 0.5 29.5 }
			temperature={ 12.0 21.0 }
			temperature_day_night={ 8.0 -8.0 }
			no_phenomenon=0.450
			rain_light=0.350
			rain_heavy=0.100
			snow=0.000
			blizzard=0.000
			mud=1.600
			sandstorm=0.000
			min_snow_level=0.000
		}
		period={
			between={ 0.6 30.6 }
			temperature={ 14.0 24.0 }
			temperature_day_night={ 8.0 -8.0 }
			no_phenomenon=0.450
			rain_light=0.350
			rain_heavy=0.100
			snow=0.000
			blizzard=0.000
			mud=1.600
			sandstorm=0.000
			min_snow_level=0.000
		}
		period={
			between={ 0.7 30.7 }
			temperature={ 12.0 21.0 }
			temperature_day_night={ 8.0 -8.0 }
			no_phenomenon=0.450
			rain_light=0.350
			rain_heavy=0.100
			snow=0.000
			blizzard=0.000
			mud=1.600
			sandstorm=0.000
			min_snow_level=0.000
		}
		period={
			between={ 0.8 29.8 }
			temperature={ 7.0 15.0 }
			temperature_day_night={ 5.0 -5.0 }
			no_phenomenon=0.450
			rain_light=0.250
			rain_heavy=0.100
			snow=0.100
			blizzard=0.000
			mud=1.600
			sandstorm=0.000
			min_snow_level=0.000
		}
		period={
			between={ 0.9 30.9 }
			temperature={ 2.0 7.0 }
			temperature_day_night={ 5.0 -8.0 }
			no_phenomenon=0.400
			rain_light=0.200
			rain_heavy=0.100
			snow=0.300
			blizzard=0.000
			mud=1.600
			sandstorm=0.000
			min_snow_level=0.000
		}
		period={
			between={ 0.10 29.10 }
			temperature={ -4.0 0.0 }
			temperature_day_night={ 5.0 -10.0 }
			no_phenomenon=0.300
			rain_light=0.050
			rain_heavy=0.000
			snow=0.500
			blizzard=0.000
			mud=1.600
			sandstorm=0.000
			min_snow_level=0.000
		}
		period={
			between={ 0.11 30.11 }
			temperature={ -9.0 -4.0 }
			temperature_day_night={ 5.0 -10.0 }
			no_phenomenon=0.350
			rain_light=0.050
			rain_heavy=0.000
			snow=0.600
			blizzard=0.050
			mud=1.600
			sandstorm=0.000
			min_snow_level=0.100
		}
	}
}
