#########################################################################
# OPINION MODIFIERS
##########################################################################
# value
# min_trust
# max_trust
# decay
# months/years/days = timer
# trade = yes/no

opinion_modifiers = {

CAN_british_removal = { value = -25 }

	}