
state={
	id=133
	name="STATE_133" # Lanark
	manpower = 2257723
	
	state_category = large_city
	
	resources={
		steel=21 # was: 36
	}

	history={
		owner = ENG
		victory_points = {
			3273 15
		}
		buildings = {
			infrastructure = 7
			industrial_complex = 1
			dockyard = 4
			anti_air_building = 2
			air_base = 3
			6395 = {
				naval_base = 2
			}

		}
		add_core_of = ENG
	}

	provinces={
		3273 6320 6350 6395 9237 9314 9350 11218 
	}
}
