
state={
	id=17
	name="STATE_17" # Saind-Dizier
	manpower = 303500
	
	state_category = town
	
	history={
		owner = FRA
		buildings = {
			infrastructure = 6
		}
		add_core_of = FRA
	}

	provinces={
		9505 9658 11488 11642 
	}
}
