
state={
	id=185
	name="STATE_185"
	manpower = 760900

	state_category = town

	resources={
		chromium=14 # was: 20
		steel = 14 # was: 20
	}

	history={
		owner = GRE
		buildings = {
			infrastructure = 4
			air_base = 3
			9805 = {
				naval_base = 1
			}
		}
		add_core_of = GRE
	}

	provinces={
		841 3914 3980 9805 9837 9916 11786  
	}
}
