
state={
	id=221
	name="STATE_221"
	manpower = 3195000

	state_category = city

	resources={
		steel=56
	}

	history={
		owner = UKR
		victory_points = {
			418 10
		}
		buildings = {
			infrastructure = 5
			arms_factory = 1
			air_base = 1
		}
		add_core_of = UKR
		1939.1.1 = {
			buildings = {
				arms_factory = 3
			}
		}
	}

	provinces={
		418 3409 3508 3531 6530 6554 9531 9556 11397 11461 11541 13240 13241
	}
}
