
state={
	id=240
	name="STATE_240" # Belgorod
	manpower = 1464537
	
	state_category = large_town

	history={
		owner = SOV
		victory_points = {
			9449 3
		}
		buildings = {
			infrastructure = 5
		}
		add_core_of = SOV
		1939.1.1 = {
			buildings = {
				industrial_complex = 1
			}
		}
	}

	provinces={
		473 534 3492 6432 6481 6517 6577 9424 9449 9489 9518 11439 11500 
	}
}
