
state={
	id=272
	name="STATE_272"
	resources={
		steel=3.000
	}

	history={
		owner = SEN
		victory_points = {
			4948 5 
		}
		buildings = {
			infrastructure = 3
			air_base = 4
			4948 = {
				naval_base = 3

			}

		}

	}

	provinces={
		4948 7972 8015 12710 
	}
	manpower=1638000
	buildings_max_level_factor=1.000
	state_category=pastoral
}
