
state={
	id=296
	name="STATE_296" # Guinea-Bissau
	manpower = 364900

	state_category = enclave
	resources={
		rubber=1 # was: 1
	}
	history={
		owner = GUB
		buildings = {
			infrastructure = 2
			12891 ={
				naval_base = 1
			}
		}
			add_core_of = GUB
	}

	provinces={
		12747 12891
	}
}
