
state={
	id=352
	name="STATE_352" # Van
	manpower = 2175490

	state_category = rural

	history={
		owner = TUR
		buildings = {
			infrastructure = 3
		}
		add_core_of = TUR
	}

	provinces={
		864 1463 6935 7530 10497 12318 12476 
	}
}
