
state={
	id=373
	name="STATE_373"
	manpower = 1483591
	
	state_category = large_city
	
	resources={
		aluminium=12 # was: 18
	}


	history={
		owner = USA
		buildings = {
			infrastructure = 5
			industrial_complex = 3
		}
		add_core_of = USA
		victory_points = {
			4569 10 
		}
		victory_points = {
			10717 10 
		}
		victory_points = {
			10370 1 
		}

	}

	provinces={
		1441 1534 1564 1621 4449 4540 4569 10370 10717 12346 12361 12463
	}
}
