
state={
	id=44
	name="STATE_44"
	manpower = 3275437
	resources={
		aluminium=8
		chromium=10
	}

	state_category = town

	history={
		owner = ALB
		victory_points = {
			9914 5
		}
		buildings = {
			infrastructure = 3
			arms_factory = 1
			industrial_complex = 2
			air_base = 3
		}
		add_core_of = ALB

	}

	provinces={
		3884 3896 9780 9875 9914 11762
	}
}
