
state={
	id=444
	name="STATE_444" # Baluchistan
	manpower = 463500

	state_category = wasteland

	history={
		owner = PAK
		buildings = {
			infrastructure = 2
		}
		add_core_of = PAK
	}

	provinces={
		1179 5043 5075 7917 8013 8066 12761 12774
	}
}
