
state={
	id=447
	name="STATE_447"
	manpower = 3859239
	resources={
		oil=1 # was: 2
	}

	state_category = town

	history={
		owner = EGY

		victory_points = {
			4076 10
		}

		victory_points = {
			1071 1
		}
		buildings = {
			infrastructure = 5
			industrial_complex = 1
			air_base = 6
			4076 = {
				naval_base = 8
			}
		}

		add_core_of = EGY
	}

	provinces={
		1071 4076 4145 7091 7164 10073 11964
	}
}
