
state={
	id=452
	name="STATE_452"
	manpower = 52556

	state_category = wasteland

	history={
		owner = EGY
		buildings = {
			infrastructure = 3
		}

	add_core_of = EGY
	}

	provinces={
		7079 9989 10061 11910 11967 5078 12033 12091 7148
	}

}
