
state={
	id=453
	name="STATE_453"
	manpower = 15359

	state_category = wasteland


	history = {
		owner = EGY
		buildings = {
			infrastructure = 2
			1155 = {
				naval_base = 2
			}
		}

		add_core_of = EGY

	}

	provinces={
		1112 1155 4161 9947 10002 10099 11922 11979 12073
	}
}
