state={
	id=459
	name="STATE_459"
	resources={
		steel=18.000
	}
	history={
		owner = ALG
		add_core_of = ALG
		victory_points = {
			1145 5
		}
		buildings = {
			infrastructure = 4
			air_base = 5
			1145 = {
				naval_base = 2
			}
		}
	}
	provinces={
		1145 4131 4146 9964 11939
	}
	manpower=1853966
	buildings_max_level_factor=1.000
	state_category=town
}
