
state={
	id=465
	name="STATE_465"
	manpower = 775020
	
	state_category = town

	history={
		owner = CAN
		victory_points = {
			1424 1
		}
		buildings = {
			infrastructure = 5
			industrial_complex = 2
			4285 = {
				naval_base = 2
			}
		}
		add_core_of = CAN
	}

	provinces={
		634 1424 4285 4342 4362 4432 7379 12289 
	}
}
