state= {
	id=537
	name="STATE_537"
	manpower = 295196
	resources={
		oil=4
	}

	state_category = rural

	history= {
		owner = SOV
		add_core_of = SOV
		buildings = {
			infrastructure = 3
			12446 = {
				naval_base = 1

			}
		}
		victory_points = {
			12446 1
		}

	}
	provinces=
	{
1322 1820 12446 	}
}
