
state={
	id=659
	name="STATE_659"
	manpower = 7541999

	state_category = city

	history={
		owner = YEM
		victory_points = {
			5074 1
		}
		buildings = {
			infrastructure = 3
			air_base = 4
			5074 = {
				naval_base = 3
			}
		}
		add_core_of = YEM
	}

	provinces={
		5074 12821
	}
}
