state={
	id=693
	name="STATE_693"
	manpower = 15000
	
	state_category = tiny_island

	history={
		owner = BAH
		buildings = {
			infrastructure = 4
			10440 = {
				naval_base = 1
			}
			1513 = {
				naval_base = 1
			}
		}
		add_core_of = BAH
	}
	
	provinces={
		1513 10440 
	}
}
