state={
	id=701
	name="STATE_701"
	manpower = 199520

	state_category = enclave
	history={
		victory_points = {
			4989 1
		}
		owner = GAM
		buildings = {
			infrastructure = 5
			4989 = {
				naval_base = 1
			}
		}
add_core_of = GAM
	}

	provinces={
		4989
	}
}
