
state={
	id=721
	name="STATE_721"
	manpower = 764883

	state_category = pastoral

	history={
		owner = INS
		buildings = {
			infrastructure = 3
			12190 ={
				naval_base = 1
			}
		}
		add_core_of = INS
	}

	provinces={
		1326 12178 12190 12206 13001
	}
}
