state={
	id=736
	name="STATE_736"

	state_category = city

	history={
		owner = SLV
		add_core_of = ITA
		add_core_of = SLV
		buildings = {
			infrastructure = 2
		}

	}

	provinces={
	 599 6626 11595
	}
	manpower=1063159
	buildings_max_level_factor=1.000
}
