state={
	id=742
	name="STATE_742"

	history={
		owner = TJK
		buildings = {
			infrastructure = 1

		}
		add_core_of = TJK

	}

	provinces={
		1216 1384 1919 4467 4542 4923 7224 8027 10187 10205 10417 10488 11687 12218 12250 12430 12805
	}
	manpower=230000
	buildings_max_level_factor=1.000
	state_category=wasteland
}
