state={
	id=748
	name="STATE_748"
	provinces={
		1010 4141 4325 4431 9939 10763 11972
	}
	history={
		owner = PRC
		add_core_of = CHI
		add_core_of = PRC
		buildings = {
			infrastructure = 2

		}
		1939.1.1 = {
			buildings = {
				infrastructure = 4
				air_base = 1
			}
		}
	}
	manpower=1500000
	state_category=pastoral
	buildings_max_level_factor=1.000
}
