state={
	id=764
	name="STATE_764"
	history={
		owner = EST
		buildings = {
			infrastructure = 5
		}
		add_core_of = EST
	}
	provinces={
		185 6201
	}
	manpower=53066
	buildings_max_level_factor=1.000
	state_category=rural
}
