state={
	id=766
	name="STATE_766"
	history={
		owner = ISR
		buildings = {
			infrastructure = 2
		}
		add_core_of = ISR
		add_core_of = SYR
	}
	provinces={
		13214
	}
	manpower=73066
	buildings_max_level_factor=1.000
	state_category=wasteland
}
