state={
	id=771
	name="STATE_771"
	history={
		owner = ITA
		victory_points = {
			9990 20 
		}
		buildings = {
			infrastructure = 8
		}
		add_core_of = ITA
	}
	provinces={
		851 3901 3958 3968 6972 9990 10027 12066 12098
	}
	manpower=2174275
	buildings_max_level_factor=1.000
	state_category=large_city
}
