state={
	id=805
	name="STATE_805"
	history={
		owner = YUG
		buildings = {
			infrastructure = 5
			industrial_complex = 2
		}
		add_core_of = YUG
		add_core_of = RES
        add_core_of = BOS
	}
	provinces={
		606 982 11741
	}
	manpower=409567
	buildings_max_level_factor=1.000
	state_category=town
}
