state={
	id=806
	name="STATE_806"
	provinces={
		9608
	}
	history={
		owner = RSK
		buildings = {
			infrastructure = 6
		}
		add_core_of = YUG
		add_core_of = CRO
		add_core_of = RSK
	}
	manpower=102620
	buildings_max_level_factor=1.000
	state_category=rural
}
