state={
	id=841
	name="STATE_841"
	impassable = yes
	history={
		owner = MAU
		add_core_of = MAU
		victory_points = {
			5034 1
		}
		buildings = {
			infrastructure = 0
		}
	}
	provinces={
		1897 1962 7943 8035 10771 10779 10838
	}
	manpower=171680
	buildings_max_level_factor=1.000
	state_category=wasteland
}
