state={
	id=844
	name="STATE_844"
	history={
		owner = GUI
		add_core_of = GUI
		buildings = {
			infrastructure = 1
		}
	}
	provinces={
		4957 5039 8008
	}
	manpower=989633
	buildings_max_level_factor=1.000
	state_category=pastoral
}
