state={
	id=845
	name="STATE_845"
	history={
		owner = NIG
		add_core_of = NIG
		buildings = {
			infrastructure = 1
		}
	}
	provinces={
		8028 10758 10780 10805
	}
	manpower=222412
	buildings_max_level_factor=1.000
	state_category=pastoral
}
