
state={
	id=862
	name="STATE_862"

	history={
		owner = KAZ
		victory_points = {
			12397 1 
		}
		buildings = {
			infrastructure = 5

		}
		add_core_of = KAZ

	}

	provinces={
		4686 7556 10366 10508 12397 
	}
	manpower=1831486
	buildings_max_level_factor=1.000
	state_category=large_city
}
