
state={
	id=877
	name="STATE_877"

	history={
		owner = LES
		victory_points = {
			4556 5 
		}
		buildings = {
			infrastructure = 1

		}
		add_core_of = LES

	}

	provinces={
		4556 
	}
	manpower=2203821
	buildings_max_level_factor=1.000
	state_category=rural
}
