
state={
	id=879
	name="STATE_879"
	state_category = rural

	history={
		owner = MLW
    victory_points = { 12986 5 }
		buildings = {
			infrastructure = 1

		}
		add_core_of = MLW

	}

	provinces={
		12908 12986 2255
	}
	manpower=2203821
	buildings_max_level_factor=1.000
}
