state={
	id=887
	name="STATE_887"
	history={
		owner = PAL
		buildings = {
			infrastructure = 4
			air_base = 1
		}
		add_core_of = PAL
	}

	provinces={
		13211
	}
	manpower=1750000
	buildings_max_level_factor=1.000
	state_category=rural
}
