state={
	id=888
	name="STATE_888"
	history={
		owner = CHE
		buildings = {
			infrastructure = 5
		}
		add_core_of = SOV
		add_core_of = CHE
		victory_points = {
			3672 5
		}
	}

	provinces={
		666 683 3672 11632 13222
	}
	manpower=865000
	buildings_max_level_factor=1.000
	state_category=rural
}
