state={
	id=89
	name="STATE_89" # Stanislawow
	manpower = 1423500
	
	state_category = town
	
	history={
		owner = UKR
                victory_points = {
			11411 6
		}
		buildings = {
			infrastructure = 4

		}
		add_core_of = UKR
	}

	provinces={
		3743 6460 9425 11411 11550 
	}
}
