state={
	id=90
	name="STATE_90" # Kielce
	manpower = 2335700
	
	state_category = town
	
	resources={
		steel=8 # was: 12
	}

	history={
		owner = POL
		victory_points = {
			562 1
		}
		victory_points = {
			3586 1
		}
		victory_points = {
			6416 1
		}
		buildings = {
			infrastructure = 6
		}
		add_core_of = POL
	}

	provinces={
		562 3458 3497 3586 6416 11430 11532 
	}
}
