state={
	id=902
	name="STATE_902"
	history={
		owner = GER
		victory_points = {
			11531 1
		}
		buildings = {
			infrastructure = 7
		}

	}
	provinces={
		9575 11531
	}
	manpower= 1090350
	buildings_max_level_factor=1.000
	state_category=town
}
