
state={
	id=957
	name="STATE_957"
	manpower = 90800
	state_category = pastoral

	history={
		owner = USA
		buildings = {
			infrastructure = 3
		}
		add_core_of = USA
	}

	provinces={
		6722 7877 12566
	}
}