
state={
	id=969
	name="STATE_969"
	manpower = 1938017
	
	
	state_category = large_city

	history={
		owner = USA
		buildings = {
			infrastructure = 6
			industrial_complex = 1
		}
		add_core_of = USA
		victory_points = {
			5022 10
		}
	}

	provinces={
		5022 7836 7981 12341 
	}
}