
state={
	id=980
	name="STATE_980"
	manpower = 520193

	state_category = rural

	history={
		owner = USA
		buildings = {
			infrastructure = 4
		}
		add_core_of = USA
	}

	provinces={
		1658 3869 6887 10535 10588 
	}
}
