
state={
	id=983
	name="STATE_983"
	manpower = 107671
	state_category = pastoral
	
	history={
		owner = USA
		buildings = {
			infrastructure = 3
		}
		add_core_of = USA
	}

	provinces={
		1815 7688 7814 12651 
	}
	
}
